{
  "log": {
    "version": "1.2",
    "creator": {
      "name": "Firefox",
      "version": "78.0.2"
    },
    "browser": {
      "name": "Firefox",
      "version": "78.0.2"
    },
    "pages": [
      {
        "startedDateTime": "2020-11-23T09:49:36.490+13:00",
        "id": "page_2",
        "title": "Derby Network Server",
        "pageTimings": {
          "onContentLoad": 550,
          "onLoad": 559
        }
      }
    ],
    "entries": [
      {
        "pageref": "page_2",
        "startedDateTime": "2020-11-23T09:49:36.490+13:00",
        "request": {
          "bodySize": 0,
          "method": "GET",
          "url": "http://localhost:8080/derbynet?logform=Logging+on",
          "httpVersion": "HTTP/1.1",
          "headers": [
            {
              "name": "Host",
              "value": "localhost:8080"
            },
            {
              "name": "User-Agent",
              "value": "Mozilla/5.0 (Windows NT 10.0; Win64; x64; rv:78.0) Gecko/20100101 Firefox/78.0"
            },
            {
              "name": "Accept",
              "value": "text/html,application/xhtml+xml,application/xml;q=0.9,image/webp,*/*;q=0.8"
            },
            {
              "name": "Accept-Language",
              "value": "en-US,en;q=0.5"
            },
            {
              "name": "Accept-Encoding",
              "value": "gzip, deflate"
            },
            {
              "name": "DNT",
              "value": "1"
            },
            {
              "name": "Connection",
              "value": "keep-alive"
            },
            {
              "name": "Referer",
              "value": "http://localhost:8080/derbynet"
            },
            {
              "name": "Cookie",
              "value": "cookieconsent_status=dismiss; JSESSIONID=node0klk4an8xm8f01peuew2v2tx9v7.node0; screenResolution=1920x1080"
            },
            {
              "name": "Upgrade-Insecure-Requests",
              "value": "1"
            },
            {
              "name": "Pragma",
              "value": "no-cache"
            },
            {
              "name": "Cache-Control",
              "value": "no-cache"
            }
          ],
          "cookies": [
            {
              "name": "cookieconsent_status",
              "value": "dismiss"
            },
            {
              "name": "JSESSIONID",
              "value": "node0klk4an8xm8f01peuew2v2tx9v7.node0"
            },
            {
              "name": "screenResolution",
              "value": "1920x1080"
            }
          ],
          "queryString": [
            {
              "name": "logform",
              "value": "Logging on"
            }
          ],
          "headersSize": 570
        },
        "cache": {},
        "timings": {
          "blocked": 0,
          "dns": 0,
          "connect": 0,
          "ssl": 0,
          "send": 0,
          "wait": 2,
          "receive": 546
        },
        "time": 548,
        "_securityState": "insecure",
        "serverIPAddress": "127.0.0.1",
        "connection": "8080"
      } 
    ]
  }
}