{
  "log": {
    "version": "1.2",
    "creator": {
      "name": "Firefox",
      "version": "78.0.2"
    },
    "browser": {
      "name": "Firefox",
      "version": "78.0.2"
    },
    "pages": [
      {
        "startedDateTime": "2020-12-11T02:41:40.767+13:00",
        "id": "page_1",
        "title": "Store administration",
        "pageTimings": {
          "onContentLoad": 970,
          "onLoad": 1098
        }
      }
    ],
    "entries": [
      {
        "pageref": "page_1",
        "startedDateTime": "2020-12-11T02:41:40.767+13:00",
        "request": {
          "bodySize": 494,
          "method": "POST",
          "url": "http://localhost:8080/admin/store/save.html",
          "httpVersion": "HTTP/1.1",
          "headers": [
            {
              "name": "Host",
              "value": "localhost:8080"
            },
            {
              "name": "User-Agent",
              "value": "Mozilla/5.0 (Windows NT 10.0; Win64; x64; rv:78.0) Gecko/20100101 Firefox/78.0"
            },
            {
              "name": "Accept",
              "value": "text/html,application/xhtml+xml,application/xml;q=0.9,image/webp,*/*;q=0.8"
            },
            {
              "name": "Accept-Language",
              "value": "en-US,en;q=0.5"
            },
            {
              "name": "Accept-Encoding",
              "value": "gzip, deflate"
            },
            {
              "name": "Content-Type",
              "value": "application/x-www-form-urlencoded"
            },
            {
              "name": "Content-Length",
              "value": "494"
            },
            {
              "name": "Origin",
              "value": "http://localhost:8080"
            },
            {
              "name": "DNT",
              "value": "1"
            },
            {
              "name": "Connection",
              "value": "keep-alive"
            },
            {
              "name": "Referer",
              "value": "http://localhost:8080/admin/store/store.html"
            },
            {
              "name": "Cookie",
              "value": "cookieconsent_status=dismiss; screenResolution=1920x1080; user_token=; JSESSIONID=node017m1evoh8720m1r5y44c7c4lh91.node0"
            },
            {
              "name": "Upgrade-Insecure-Requests",
              "value": "1"
            },
            {
              "name": "Pragma",
              "value": "no-cache"
            },
            {
              "name": "Cache-Control",
              "value": "no-cache"
            }
          ],
          "cookies": [
            {
              "name": "cookieconsent_status",
              "value": "dismiss"
            },
            {
              "name": "screenResolution",
              "value": "1920x1080"
            },
            {
              "name": "user_token",
              "value": ""
            },
            {
              "name": "JSESSIONID",
              "value": "node017m1evoh8720m1r5y44c7c4lh91.node0"
            }
          ],
          "queryString": [],
          "headersSize": 694,
          "postData": {
            "mimeType": "application/x-www-form-urlencoded",
            "params": [
              {
                "name": "storename",
                "value": "TestStore"
              },
              {
                "name": "code",
                "value": "DEFAULT"
              },
              {
                "name": "storephone",
                "value": "888-888-8888"
              },
              {
                "name": "storeEmailAddress",
                "value": "john@test.com"
              },
              {
                "name": "storeaddress",
                "value": "1234 Street address"
              },
              {
                "name": "storecity",
                "value": "My city"
              },
              {
                "name": "country.isoCode",
                "value": "AL"
              },
              {
                "name": "zone.code",
                "value": "QC"
              },
              {
                "name": "storestateprovince",
                "value": "BBB"
              },
              {
                "name": "storepostalcode",
                "value": "H2H-2H2"
              },
              {
                "name": "languages",
                "value": "1"
              },
              {
                "name": "languages",
                "value": "2"
              },
              {
                "name": "_languages",
                "value": "on"
              },
              {
                "name": "defaultLanguage.id",
                "value": "1"
              },
              {
                "name": "currency.id",
                "value": "144"
              },
              {
                "name": "currencyFormatNational",
                "value": "true"
              },
              {
                "name": "_currencyFormatNational",
                "value": "on"
              },
              {
                "name": "weightunitcode",
                "value": "KG"
              },
              {
                "name": "seizeunitcode",
                "value": "CM"
              },
              {
                "name": "dateBusinessSince",
                "value": "1800-12-11"
              },
              {
                "name": "_useCache",
                "value": "on"
              },
              {
                "name": "domainName",
                "value": "localhost:8080"
              },
              {
                "name": "id",
                "value": "1"
              },
              {
                "name": "storeLogo",
                "value": ""
              },
              {
                "name": "storeTemplate",
                "value": "december"
              }
            ],
            "text": "storename=TestStore&code=DEFAULT&storephone=888-888-8888&storeEmailAddress=john%40test.com&storeaddress=1234+Street+address&storecity=My+city&country.isoCode=AL&zone.code=QC&storestateprovince=BBB&storepostalcode=H2H-2H2&languages=1&languages=2&_languages=on&defaultLanguage.id=1&currency.id=144&currencyFormatNational=true&_currencyFormatNational=on&weightunitcode=KG&seizeunitcode=CM&dateBusinessSince=1800-12-11&_useCache=on&domainName=localhost%3A8080&id=1&storeLogo=&storeTemplate=december"
          }
        },
        "response": {
          "status": 200,
          "statusText": "OK",
          "httpVersion": "HTTP/1.1",
          "headers": [
            {
              "name": "Date",
              "value": "Thu, 10 Dec 2020 13:41:40 GMT"
            },
            {
              "name": "Access-Control-Allow-Methods",
              "value": "POST, GET, PUT, OPTIONS, DELETE, PATCH"
            },
            {
              "name": "Access-Control-Allow-Origin",
              "value": "http://localhost:8080"
            },
            {
              "name": "Access-Control-Allow-Headers",
              "value": "X-Auth-Token, Content-Type, Authorization"
            },
            {
              "name": "Access-Control-Allow-Credentials",
              "value": "true"
            },
            {
              "name": "Content-Language",
              "value": "en-US"
            },
            {
              "name": "Content-Type",
              "value": "text/html;charset=utf-8"
            },
            {
              "name": "Cache-Control",
              "value": "no-cache"
            },
            {
              "name": "Pragma",
              "value": "no-cache"
            },
            {
              "name": "Expires",
              "value": "Wed, 31 Dec 1969 23:59:59 GMT"
            },
            {
              "name": "X-Content-Type-Options",
              "value": "nosniff"
            },
            {
              "name": "X-XSS-Protection",
              "value": "1; mode=block"
            },
            {
              "name": "X-Frame-Options",
              "value": "DENY"
            },
            {
              "name": "Transfer-Encoding",
              "value": "chunked"
            },
            {
              "name": "Server",
              "value": "Jetty(9.4.9.v20180320)"
            }
          ],
          "cookies": [],
          "content": {
            "mimeType": "text/html; charset=utf-8",
            "size": 36697,
            "text": "\r\n\r\n\r\n\r\n\r\n\r\n\r\n\r\n \r\n\r\n\r\n \r\n<!DOCTYPE html PUBLIC \"-//W3C//DTD XHTML 1.0 Transitional//EN\" \"http://www.w3.org/TR/xhtml1/DTD/xhtml1-transitional.dtd\">\r\n  \r\n \r\n \r\n  \r\n  \r\n \r\n \r\n <html xmlns=\"http://www.w3.org/1999/xhtml\"> \r\n \r\n \r\n     <head>\r\n     \r\n     \r\n        \t \t<meta http-equiv=\"Content-Type\" content=\"text/html; charset=UTF-8\">\r\n        \t \t<meta charset=\"utf-8\">\r\n    \t\t\t<title>Store administration</title>\r\n    \t\t\t<meta name=\"viewport\" content=\"width=device-width, initial-scale=1.0\">\r\n    \t\t\t<meta name=\"description\" content=\"\">\r\n    \t\t\t<meta name=\"author\" content=\"\">\r\n    \t\t\t\r\n    \t\t\t<script src=\"/resources/js/bootstrap/jquery.js\"></script>\r\n    \t\t\t<script src=\"/resources/js/jquery.friendurl.min.js\"></script>\r\n \r\n  \r\n                \r\n\r\n\r\n\r\n\r\n\r\n\r\n    <!-- Le styles -->\r\n    \r\n    <link href=\"/resources/css/bootstrap/css/sm-bootstrap.css\" rel=\"stylesheet\">\r\n    <link href=\"/resources/css/bootstrap/css/sm-bootstrap-responsive.css\" rel=\"stylesheet\">\r\n    \r\n \r\n \r\n\r\n\r\n    <!-- Le HTML5 shim, for IE6-8 support of HTML5 elements -->\r\n    <!--[if lt IE 9]>\r\n      <!--<script src=\"http://html5shim.googlecode.com/svn/trunk/html5.js\"></script>-->\r\n    <![endif]-->\r\n\t<link href=\"/resources/css/shopizer-admin.css\" rel=\"stylesheet\">\r\n\r\n\r\n    <script src=\"/resources/js/jquery.showLoading.min.js\"></script>\r\n\t<link href=\"/resources/css/showLoading.css\" rel=\"stylesheet\">\r\n\r\n\r\n    <script>var isomorphicDir=\"/resources/smart-client/\";</script>\r\n    <script SRC=\"/resources/smart-client/system/modules/ISC_Core.js\"></script>\r\n    <script SRC=\"/resources/smart-client/system/modules/ISC_Foundation.js\"></script>\r\n    <script SRC=\"/resources/smart-client/system/modules/ISC_Containers.js\"></script>\r\n    <script SRC=\"/resources/smart-client/system/modules/ISC_Grids.js\"></script>\r\n    <script SRC=\"/resources/smart-client/system/modules/ISC_Forms.js\"></script>\r\n    <script SRC=\"/resources/smart-client/system/modules/ISC_DataBinding.js\"></script>\r\n    <script SRC=\"/resources/smart-client/skins/Graphite/load_skin.js\"></script>\r\n\r\n\r\n                \r\n                \r\n\r\n\r\n \t\r\n \t\r\n \t</head>\r\n \r\n \t<body class=\"body\">\r\n\r\n     <p>&nbsp;</p>\r\n\r\n<div class=\"sm\">\r\n\t<div class=\"container\">\r\n\r\n\t\t<div class=\"row\">\r\n\r\n  \t\t\t<div class=\"span4\"><a class=\"brand\" href=\"#\"><img src=\"/resources/img/shopizer_small.jpg\"/></a></div>\r\n\r\n  \t\t\t<div class=\"span4 offset4\">\r\n\r\n\t\t\t\t\t<div class=\"btn-group pull-right\">\r\n\t\t\t\t\t\t<div class=\"nav-collapse\">\r\n\t\t\t\t\t\t\t\t\t\t\t\t\r\n\t\t\t\t\t\t\r\n\t\t\t\t\t\t\t<ul class=\"nav pull-right\" style=\"z-index:500000;position:relative\">\r\n\t\t\t\t\t\t\t\t<li class=\"dropdown\">\r\n\t\t\t\t\t\t\t\t\t\r\n\t\t\t\t\t\t\t\t\t<a data-toggle=\"dropdown\" class=\"dropdown-toggle\" href=\"#\">\r\n\t\t\t\t\t\t\t\t\t\t<i class=\"icon-user\"></i> \r\n\t\t\t\t\t\t\t\t\t\tadmin&#64;shopizer&#46;com\r\n\t\t\t\t\t\t\t\t\t\t<b class=\"caret\"></b>\r\n\t\t\t\t\t\t\t\t\t</a>\r\n\t\t\t\t\t\t\t\t\t\r\n\t\t\t\t\t\t\t\t\t<ul class=\"dropdown-menu\">\r\n\t\t\t\t\t\t\t\t\t\t<li><a href=\"/admin/users/displayUser.html\">My profile</a></li>\r\n\t\t\t\t\t\t\t\t\t\t<li class=\"divider\"></li>\r\n\t\t\t\t\t\t\t\t\t\t<li>\r\n\t\t\t\t\t\t\t\t\t\t\t\r\n\t\t\t\t\t\t\t\t\t\t\t<a href=\"/admin/logout\">Logout</a>\r\n\t\t\t\t\t\t\t\t\t\t</li>\r\n\t\t\t\t\t\t\t\t\t</ul>\r\n\t\t\t\t\t\t\t\t\t\r\n\t\t\t\t\t\t\t\t</li>\r\n\t\t\t\t\t\t   </ul>\r\n\t\t\t\t\t\t   \r\n\t\t\t\t\t\t   \r\n\r\n\t\t\t\t\r\n\t\t\t\t</div><!--/.nav-collapse -->\t\r\n\r\n\t\t\t</div>\r\n\r\n  \t\t\t</div>\r\n\r\n\r\n   \r\n\t\t\r\n\t\t</div>\r\n\t\t\r\n\t</div>\r\n\r\n\t\r\n\t<div class=\"row\">&nbsp;</div>\r\n\r\n\r\n\r\n\t<div class=\"container\"> \r\n\t\t<div class=\"row\">\t\r\n\t\t\t\r\n\t\t\t<div class=\"span3\">\r\n\t\t\t\t<ul class=\"nav nav-list\">\r\n\t\t\t\t\t  \r\n\t\t\t\t\t  \t\t\t\r\n\t\t\t\t\t  \t\t\t<li >\r\n\t\t\t\t\t\t\t\t\t<a href=\"/admin/home.html\">\r\n\t\t\t\t\t\t\t\t\t\t<i class=\"icon-home\"></i>\r\n\t\t\t\t\t\t\t\t\t\t\tHome\r\n\t\t\t\t\t\t\t\t\t</a>\r\n\t\t\t\t\t  \t\t\t</li>\r\n\t\t\t\t\t  \t\t\t\r\n\t\t\t\t\t  \r\n\t\t\t\t\t  \t\t\t\r\n\t\t\t\t\t  \t\t\t<li  class=\"active\">\r\n\t\t\t\t\t\t\t\t\t<a href=\"/admin/store/store.html\">\r\n\t\t\t\t\t\t\t\t\t\t<i class=\"icon-file\"></i>\r\n\t\t\t\t\t\t\t\t\t\t\tStore\r\n\t\t\t\t\t\t\t\t\t</a>\r\n\t\t\t\t\t  \t\t\t</li>\r\n\t\t\t\t\t  \t\t\t\r\n\t\t\t\t\t  \r\n\t\t\t\t\t  \t\t\t\r\n\t\t\t\t\t  \t\t\t<li >\r\n\t\t\t\t\t\t\t\t\t<a href=\"/admin/users/displayUser.html\">\r\n\t\t\t\t\t\t\t\t\t\t<i class=\"icon-info-sign\"></i>\r\n\t\t\t\t\t\t\t\t\t\t\tProfile\r\n\t\t\t\t\t\t\t\t\t</a>\r\n\t\t\t\t\t  \t\t\t</li>\r\n\t\t\t\t\t  \t\t\t\r\n\t\t\t\t\t  \r\n\t\t\t\t\t  \t\t\t\r\n\t\t\t\t\t  \t\t\t<li >\r\n\t\t\t\t\t\t\t\t\t<a href=\"/admin/products/products.html\">\r\n\t\t\t\t\t\t\t\t\t\t<i class=\"icon-tags\"></i>\r\n\t\t\t\t\t\t\t\t\t\t\tCatalogue\r\n\t\t\t\t\t\t\t\t\t</a>\r\n\t\t\t\t\t  \t\t\t</li>\r\n\t\t\t\t\t  \t\t\t\r\n\t\t\t\t\t  \r\n\t\t\t\t\t  \t\t\t\r\n\t\t\t\t\t  \t\t\t<li >\r\n\t\t\t\t\t\t\t\t\t<a href=\"/admin/content/pages/list.html\">\r\n\t\t\t\t\t\t\t\t\t\t<i class=\"icon-pencil\"></i>\r\n\t\t\t\t\t\t\t\t\t\t\tManage content\r\n\t\t\t\t\t\t\t\t\t</a>\r\n\t\t\t\t\t  \t\t\t</li>\r\n\t\t\t\t\t  \t\t\t\r\n\t\t\t\t\t  \r\n\t\t\t\t\t  \t\t\t\r\n\t\t\t\t\t  \t\t\t<li >\r\n\t\t\t\t\t\t\t\t\t<a href=\"/admin/shipping/shippingConfigs.html\">\r\n\t\t\t\t\t\t\t\t\t\t<i class=\"icon-plane\"></i>\r\n\t\t\t\t\t\t\t\t\t\t\tShipping\r\n\t\t\t\t\t\t\t\t\t</a>\r\n\t\t\t\t\t  \t\t\t</li>\r\n\t\t\t\t\t  \t\t\t\r\n\t\t\t\t\t  \r\n\t\t\t\t\t  \t\t\t\r\n\t\t\t\t\t  \t\t\t<li >\r\n\t\t\t\t\t\t\t\t\t<a href=\"/admin/payments/paymentMethods.html\">\r\n\t\t\t\t\t\t\t\t\t\t<i class=\"icon-cog\"></i>\r\n\t\t\t\t\t\t\t\t\t\t\tPayment\r\n\t\t\t\t\t\t\t\t\t</a>\r\n\t\t\t\t\t  \t\t\t</li>\r\n\t\t\t\t\t  \t\t\t\r\n\t\t\t\t\t  \r\n\t\t\t\t\t  \t\t\t\r\n\t\t\t\t\t  \t\t\t<li >\r\n\t\t\t\t\t\t\t\t\t<a href=\"/admin/customers/list.html\">\r\n\t\t\t\t\t\t\t\t\t\t<i class=\"icon-user\"></i>\r\n\t\t\t\t\t\t\t\t\t\t\tCustomers\r\n\t\t\t\t\t\t\t\t\t</a>\r\n\t\t\t\t\t  \t\t\t</li>\r\n\t\t\t\t\t  \t\t\t\r\n\t\t\t\t\t  \r\n\t\t\t\t\t  \t\t\t\r\n\t\t\t\t\t  \t\t\t<li >\r\n\t\t\t\t\t\t\t\t\t<a href=\"/admin/orders/list.html\">\r\n\t\t\t\t\t\t\t\t\t\t<i class=\"icon-shopping-cart\"></i>\r\n\t\t\t\t\t\t\t\t\t\t\tOrders\r\n\t\t\t\t\t\t\t\t\t</a>\r\n\t\t\t\t\t  \t\t\t</li>\r\n\t\t\t\t\t  \t\t\t\r\n\t\t\t\t\t  \r\n\t\t\t\t\t  \t\t\t\r\n\t\t\t\t\t  \t\t\t<li >\r\n\t\t\t\t\t\t\t\t\t<a href=\"/admin/tax/taxconfiguration/edit.html\">\r\n\t\t\t\t\t\t\t\t\t\t<i class=\"icon-book\"></i>\r\n\t\t\t\t\t\t\t\t\t\t\tManage taxes\r\n\t\t\t\t\t\t\t\t\t</a>\r\n\t\t\t\t\t  \t\t\t</li>\r\n\t\t\t\t\t  \t\t\t\r\n\t\t\t\t\t  \r\n\t\t\t\t\t  \t\t\t\r\n\t\t\t\t\t  \t\t\t<li >\r\n\t\t\t\t\t\t\t\t\t<a href=\"/admin/cache/cacheManagement.html\">\r\n\t\t\t\t\t\t\t\t\t\t<i class=\"icon-th\"></i>\r\n\t\t\t\t\t\t\t\t\t\t\tCache management\r\n\t\t\t\t\t\t\t\t\t</a>\r\n\t\t\t\t\t  \t\t\t</li>\r\n\t\t\t\t\t  \t\t\t\r\n\t\t\t\t\t  \r\n\t\t\t\t\t  \t\t\t\r\n\t\t\t\t\t  \t\t\t<li >\r\n\t\t\t\t\t\t\t\t\t<a href=\"/admin/configuration/accounts.html\">\r\n\t\t\t\t\t\t\t\t\t\t<i class=\"icon-wrench\"></i>\r\n\t\t\t\t\t\t\t\t\t\t\tConfigurations\r\n\t\t\t\t\t\t\t\t\t</a>\r\n\t\t\t\t\t  \t\t\t</li>\r\n\t\t\t\t\t  \t\t\t\r\n\t\t\t\t\t  \r\n\t\t\t\t</ul>\r\n\t\t\t</div><!-- end span 3 -->\r\n\t\t\t\r\n\t\t\t\r\n\r\n\t\t\t<div class=\"span9\">\r\n\r\n\t\t\t\t\r\n\r\n\r\n\r\n\r\n\r\n\r\n\r\n    <link href=\"/resources/css/bootstrap/css/datepicker.css\" rel=\"stylesheet\"></link>\r\n\t<script src=\"/resources/js/bootstrap/bootstrap-datepicker.js\"></script>\r\n\r\n\r\n<script>\r\n\r\n\r\n$(document).ready(function() {\r\n\r\n\tif($(\"#code\").val()==\"\") {\r\n\t\t$('.btn').addClass('disabled');\r\n\t}\r\n\r\n\t\r\n\t\r\n\t\r\n\t\t$('.zone-list').hide();          \r\n\t\t$('#storestateprovince').show(); \r\n\t\t$('#storestateprovince').val('BBB');\r\n\t\r\n\t\r\n\t\r\n\r\n\t$(\".country-list\").change(function() {\r\n\t\tgetZones($(this).val());\r\n    })\r\n\r\n\r\n});\r\n\r\n$.fn.addItems = function(data) {\r\n    $(\".zone-list > option\").remove();\r\n        return this.each(function() {\r\n            var list = this;\r\n            $.each(data, function(index, itemData) {\r\n                var option = new Option(itemData.name, itemData.code);\r\n                list.add(option);\r\n            });\r\n     });\r\n};\r\n\r\nfunction getZones(countryCode){\r\n\r\n\tvar url = '/admin/reference/provinces.html?lang=en';\t\r\n\r\n\t$.ajax({\r\n\t  type: 'POST',\r\n\t  url: url,\r\n\t  data: 'countryCode=' + countryCode,\r\n\t  dataType: 'json',\r\n\t  success: function(response){\r\n\r\n\t\t\tvar status = isc.XMLTools.selectObjects(response, \"/response/status\");\r\n\t\t\tif(status==0 || status ==9999) {\r\n\t\t\t\t\r\n\t\t\t\tvar data = isc.XMLTools.selectObjects(response, \"/response/data\");\r\n\t\t\t\tif(data && data.length>0) {\r\n\t\t\t\t\t\r\n\t\t\t\t\t$('.zone-list').show();  \r\n\t\t\t\t\t$('#storestateprovince').hide();\r\n\t\t\t\t\t$(\".zone-list\").addItems(data);\r\n\t\t\t\t\t\r\n\t\t\t\t\t\t$('.zone-list').val('QC');\r\n\t\t\t\t\t\t$('#storestateprovince').val('');\r\n\t\t\t\t\t\r\n\t\t\t\t} else {\r\n\t\t\t\t\t$('.zone-list').hide();             \r\n\t\t\t\t\t$('#storestateprovince').show();\r\n\t\t\t\t\t\r\n\t\t\t\t\t\t$('#storestateprovince').val('BBB');\r\n\t\t\t\t\t\r\n\t\t\t\t}\r\n\t\t\t} else {\r\n\t\t\t\t$('.zone-list').hide();             \r\n\t\t\t\t$('#storestateprovince').show();\r\n\t\t\t}\r\n\r\n\t  \r\n\t  },\r\n\t  error: function(xhr, textStatus, errorThrown) {\r\n\t  \talert('error ' + errorThrown);\r\n\t  }\r\n\t  \r\n\t});\r\n}\r\n\r\n\r\n\r\nfunction validateCode() {\r\n\t$('#checkCodeStatus').html('<img src=\"/resources/img/ajax-loader.gif');\r\n\t$('#checkCodeStatus').show();\r\n\tvar storeCode = $(\"#code\").val();\r\n\tvar id = $(\"#id\").val();\r\n\tcheckCode(storeCode,id,'/admin/store/checkStoreCode.html');\r\n}\r\n\r\nfunction callBackCheckCode(msg,code) {\r\n\t\r\n\tif(code==0) {\r\n\t\t$('.btn').removeClass('disabled');\r\n\t}\r\n\tif(code==9999) {\r\n\r\n\t\t$('#checkCodeStatus').html('<font color=\"green\">This code is available</font>');\r\n\t\t$('#checkCodeStatus').show();\r\n\t\t$('.btn').removeClass('disabled');\r\n\t}\r\n\tif(code==9998) {\r\n\r\n\t\t$('#checkCodeStatus').html('<font color=\"red\">This code already exist</font>');\r\n\t\t$('#checkCodeStatus').show();\r\n\t\t$('.btn').addClass('disabled');\r\n\t}\r\n\t\r\n}\r\n\r\n\r\n</script>\r\n\r\n\r\n<div class=\"tabbable\">\r\n\r\n\r\n\t\t\t\t\r\n\r\n\r\n\r\n\r\n\r\n\r\n\r\n      \t\t\t\t\r\n  \t\t\t\t\t\r\n\t\t\t\t\t\t\r\n  \t\t\t\t\t\t<ul class=\"nav nav-tabs\">\r\n  \t\t\t\t\t\t\r\n  \t\t\t\t\t\t\t\r\n  \t\t\t\t\t\t\t\r\n  \t\t\t\t\t\t\t    \r\n  \t\t\t\t\t\t\t    \r\n  \t\t\t\t\t\t\t\t\t <li class=\"dropdown  active\" style=\"z-index:500000;position:relative\"> \r\n  \t\t\t\t\t\t\t\t\t\t<a href=\"#\" class=\"dropdown-toggle\" data-toggle=\"dropdown\">Store<b class=\"caret\"></b></a>\r\n  \t\t\t\t\t\t\t\t\t\t<ul class=\"dropdown-menu\"> \r\n  \t\t\t\t\t\t\t\t\t\t\t\r\n  \t\t\t\t\t\t\t\t\t\t\t\t\r\n  \t\t\t\t\t\t\t\t\t\t\t\t\t<li><a href=\"#\" onClick=\"window.location.href='/admin/store/store.html';\" id=\"storeDetails-link\" data-toggle=\"tab\">Store</a></li>\r\n  \t\t\t\t\t\t\t\t\t\t\t\t\r\n  \t\t\t\t\t\t\t\t\t\t\t\r\n  \t\t\t\t\t\t\t\t\t\t\t\t\r\n  \t\t\t\t\t\t\t\t\t\t\t\t\t<li><a href=\"#\" onClick=\"window.location.href='/admin/store/createStore.html';\" id=\"create-store-link\" data-toggle=\"tab\">Create a store</a></li>\r\n  \t\t\t\t\t\t\t\t\t\t\t\t\r\n  \t\t\t\t\t\t\t\t\t\t\t\r\n  \t\t\t\t\t\t\t\t\t\t\t\t\r\n  \t\t\t\t\t\t\t\t\t\t\t\t\t<li><a href=\"#\" onClick=\"window.location.href='/admin/store/list.html';\" id=\"store-list-link\" data-toggle=\"tab\">Stores</a></li>\r\n  \t\t\t\t\t\t\t\t\t\t\t\t\r\n  \t\t\t\t\t\t\t\t\t\t\t\r\n  \t\t\t\t\t\t\t\t\t\t</ul> \r\n  \t\t\t\t\t\t\t\t\t</li>\r\n  \t\t\t\t\t\t\t    \r\n  \t\t\t\t\t\t\t\r\n  \t\t\t\t\t\t\t\r\n  \t\t\t\t\t\t\r\n  \t\t\t\t\t\t\t\r\n  \t\t\t\t\t\t\t\r\n  \t\t\t\t\t\t\t    \r\n  \t\t\t\t\t\t\t\t\t<li id=\"storeBranding-tab\" ><a href=\"#\" id=\"storeBranding-link\" data-toggle=\"tab\">Store branding</a></li>\r\n  \t\t\t\t\t\t\t    \r\n  \t\t\t\t\t\t\t    \r\n  \t\t\t\t\t\t\t\r\n  \t\t\t\t\t\t\t\r\n  \t\t\t\t\t\t\r\n  \t\t\t\t\t\t\t\r\n  \t\t\t\t\t\t\t\r\n  \t\t\t\t\t\t\t    \r\n  \t\t\t\t\t\t\t\t\t<li id=\"storeLanding-tab\" ><a href=\"#\" id=\"storeLanding-link\" data-toggle=\"tab\">Store home page</a></li>\r\n  \t\t\t\t\t\t\t    \r\n  \t\t\t\t\t\t\t    \r\n  \t\t\t\t\t\t\t\r\n  \t\t\t\t\t\t\t\r\n  \t\t\t\t\t\t\r\n  \t\t\t\t\t\t</ul>\r\n  \t\t\t\t\t\t\r\n  \t\t\t\t\t\r\n\t\t\t\t\r\n\t\t\t\t<h3>Merchant Store</h3>\t\r\n\t\t\t\t<br/>\r\n\r\n\r\n\t\t\t\t\r\n\r\n\r\n\t\t\t\t<form id=\"store\" action=\"/admin/store/save.html\" method=\"POST\">\r\n\t\t\t\t\r\n\t\t\t\t\t\r\n\t\t\t\t\t<div id=\"store.success\" class=\"alert alert-success\" style=\"display:block;\">Request completed with success</div>    \r\n\t\t\t\t\r\n\t      \t\t\t<div class=\"control-group\">\r\n\t                        <label>Store Name</label>\r\n\t                        <div class=\"controls\">\r\n\t                        \t\t<input id=\"storename\" name=\"storename\" class=\"input-large highlight\" type=\"text\" value=\"TestStore\"/>\r\n\t                                    <span class=\"help-inline\"></span>\r\n\t                        </div>\r\n\t                  </div>\r\n\t                  \r\n\t                  <div class=\"control-group\">\r\n\t                        <label>Unique Store Code</label>\r\n\t                        <div class=\"controls\">\r\n\t                        \t\t\t\r\n\t                        \t\t\t\t\r\n\t                        \t\t\t\t\t<span class=\"input-large uneditable-input\">DEFAULT</span><input id=\"code\" name=\"code\" type=\"hidden\" value=\"DEFAULT\"/>\r\n\t                        \t\t\t\t\r\n\t                        \t\t\t\t\r\n\t                        \t\t\t\r\n\t                        \t\t\t<span class=\"help-inline\"><div id=\"checkCodeStatus\" style=\"display:none;\"></div></span>\r\n\t                        </div>\r\n\t                  </div>\r\n\t                  \r\n\t                  <div class=\"control-group\">\r\n\t                        <label>Store Phone</label>\r\n\t                        <div class=\"controls\">\r\n\t                                    <input id=\"storephone\" name=\"storephone\" class=\"input-large highlight\" type=\"text\" value=\"888-888-8888\"/>\r\n\t                                    <span class=\"help-inline\"></span>\r\n\t                        </div>\r\n\t\r\n\t                  </div>\r\n\t                  \r\n\t                 <div class=\"control-group\">\r\n\t                        <label>Store email address</label>\r\n\t                        <div class=\"controls\">\r\n\t                                    <input id=\"storeEmailAddress\" name=\"storeEmailAddress\" class=\"input-large highlight\" type=\"text\" value=\"john@test.com\"/>\r\n\t                                    <span class=\"help-inline\"></span>\r\n\t                        </div>\r\n\t                  </div>\r\n\t                  \r\n\t                  <div class=\"control-group\">\r\n\t                        <label>Store Address</label>\r\n\t                        <div class=\"controls\">\r\n\t                                    <input id=\"storeaddress\" name=\"storeaddress\" class=\"input-large\" type=\"text\" value=\"1234 Street address\"/>\r\n\t                                    <span class=\"help-inline\"></span>\r\n\t                        </div>\r\n\t                  </div>\r\n\t                  \r\n\t                  \r\n\t                  <div class=\"control-group\">\r\n\t                        <label>Store City</label>\r\n\t                        <div class=\"controls\">\r\n\t                                    <input id=\"storecity\" name=\"storecity\" class=\"input-large highlight\" type=\"text\" value=\"My city\"/>\r\n\t                                    <span class=\"help-inline\"></span>\r\n\t                        </div>\r\n\t                  </div>\r\n\t                  \r\n\t                  <div class=\"control-group\">\r\n\t                        <label>Store Country</label>\r\n\t                        <div class=\"controls\">\r\n\t                        \t\t\t\t\t\r\n\t                        \t\t\t\t\t<select id=\"country.isoCode\" name=\"country.isoCode\" class=\"country-list highlight\">\r\n\t\t\t\t\t  \t\t\t\t\t\t\t\t<option value=\"AL\" selected=\"selected\">Albania</option><option value=\"DZ\">Algeria</option><option value=\"AR\">Argentina</option><option value=\"AU\">Australia</option><option value=\"AT\">Austria</option><option value=\"BH\">Bahrain</option><option value=\"BY\">Belarus</option><option value=\"BE\">Belgium</option><option value=\"BO\">Bolivia</option><option value=\"BA\">Bosnia and Herzegovina</option><option value=\"BR\">Brazil</option><option value=\"BG\">Bulgaria</option><option value=\"CA\">Canada</option><option value=\"CL\">Chile</option><option value=\"CN\">China</option><option value=\"CO\">Colombia</option><option value=\"CR\">Costa Rica</option><option value=\"HR\">Croatia</option><option value=\"CU\">Cuba</option><option value=\"CY\">Cyprus</option><option value=\"CZ\">Czech Republic</option><option value=\"DK\">Denmark</option><option value=\"DO\">Dominican Republic</option><option value=\"EC\">Ecuador</option><option value=\"EG\">Egypt</option><option value=\"SV\">El Salvador</option><option value=\"EE\">Estonia</option><option value=\"FI\">Finland</option><option value=\"FR\">France</option><option value=\"DE\">Germany</option><option value=\"GR\">Greece</option><option value=\"GT\">Guatemala</option><option value=\"HN\">Honduras</option><option value=\"HK\">Hong Kong</option><option value=\"HU\">Hungary</option><option value=\"IS\">Iceland</option><option value=\"IN\">India</option><option value=\"ID\">Indonesia</option><option value=\"IQ\">Iraq</option><option value=\"IE\">Ireland</option><option value=\"IL\">Israel</option><option value=\"IT\">Italy</option><option value=\"JP\">Japan</option><option value=\"JO\">Jordan</option><option value=\"KR\">South Korea</option><option value=\"KW\">Kuwait</option><option value=\"LV\">Latvia</option><option value=\"LB\">Lebanon</option><option value=\"LY\">Libya</option><option value=\"LT\">Lithuania</option><option value=\"LU\">Luxembourg</option><option value=\"MK\">Macedonia</option><option value=\"MY\">Malaysia</option><option value=\"MT\">Malta</option><option value=\"MX\">Mexico</option><option value=\"ME\">Montenegro</option><option value=\"MA\">Morocco</option><option value=\"NL\">Netherlands</option><option value=\"NZ\">New Zealand</option><option value=\"NI\">Nicaragua</option><option value=\"NO\">Norway</option><option value=\"OM\">Oman</option><option value=\"PA\">Panama</option><option value=\"PY\">Paraguay</option><option value=\"PE\">Peru</option><option value=\"PH\">Philippines</option><option value=\"PL\">Poland</option><option value=\"PT\">Portugal</option><option value=\"PR\">Puerto Rico</option><option value=\"QA\">Qatar</option><option value=\"RO\">Romania</option><option value=\"RU\">Russia</option><option value=\"SA\">Saudi Arabia</option><option value=\"RS\">Serbia</option><option value=\"SG\">Singapore</option><option value=\"SK\">Slovakia</option><option value=\"SI\">Slovenia</option><option value=\"ZA\">South Africa</option><option value=\"ES\">Spain</option><option value=\"SD\">Sudan</option><option value=\"SE\">Sweden</option><option value=\"CH\">Switzerland</option><option value=\"SY\">Syria</option><option value=\"TW\">Taiwan</option><option value=\"TH\">Thailand</option><option value=\"TN\">Tunisia</option><option value=\"TR\">Turkey</option><option value=\"UA\">Ukraine</option><option value=\"AE\">United Arab Emirates</option><option value=\"GB\">United Kingdom</option><option value=\"US\">United States</option><option value=\"UY\">Uruguay</option><option value=\"VE\">Venezuela</option><option value=\"VN\">Vietnam</option><option value=\"YE\">Yemen</option>\r\n\t\t\t\t       \t\t\t\t\t\t\t</select>\r\n\t                                   \t\t\t<span class=\"help-inline\"></span>\r\n\t                        </div>\r\n\t                  </div>\r\n\t                  \r\n\r\n\t                 <div class=\"control-group\">\r\n\t                        <label>Store State / Province</label>\r\n\t                        <div class=\"controls\">\r\n\t                        \t\t\t\t\t<select id=\"zone.code\" name=\"zone.code\" class=\"zone-list highlight\"></select>\r\n\t                        \t\t\t\t\t<input type=\"text\" class=\"input-large highlight\" id=\"storestateprovince\" name=\"storestateprovince\" value=\"BBB\" /> \r\n\t                                   \t\t\t<span class=\"help-inline\"></span>\r\n\t                        </div>\r\n\t                  </div>\r\n\t                  \r\n\t                  <div class=\"control-group\">\r\n\t                        <label>Store Postal Code</label>\r\n\t                        <div class=\"controls\">\r\n\t                                    <input id=\"storepostalcode\" name=\"storepostalcode\" class=\"input-large highlight\" type=\"text\" value=\"H2H-2H2\"/>\r\n\t                                    <span class=\"help-inline\"></span>\r\n\t                        </div>\r\n\t                  </div>\r\n\t                  \r\n\t                  \r\n\t                  \r\n\t                  <div class=\"control-group\">\r\n\t                        <label>Supported languages</label>\r\n\t                        <div class=\"controls\">\r\n\r\n\t                        \t\t\t\t\t<span><input id=\"languages1\" name=\"languages\" class=\"highlight\" type=\"checkbox\" value=\"1\" checked=\"checked\"/><label for=\"languages1\">en</label></span><span><input id=\"languages2\" name=\"languages\" class=\"highlight\" type=\"checkbox\" value=\"2\" checked=\"checked\"/><label for=\"languages2\">fr</label></span><input type=\"hidden\" name=\"_languages\" value=\"on\"/> \r\n\t                                   \t\t\t<span class=\"help-inline\"></span>\r\n\t                        </div>\r\n\t                  </div>\r\n\t                  \r\n\t                  \r\n\t                  <div class=\"control-group\">\r\n\t                        <label>Default language</label>\r\n\t                        <div class=\"controls\">\r\n\r\n\t                        \t\t\t\t\t<select id=\"defaultLanguage.id\" name=\"defaultLanguage.id\"><option value=\"1\" selected=\"selected\">en</option><option value=\"2\">fr</option></select> \r\n\t                                   \t\t\t<span class=\"help-inline\"></span>\r\n\t                        </div>\r\n\t                  </div>\r\n\t                  \r\n\t                  <div class=\"control-group\">\r\n\t                        <label>Currency</label>\r\n\t                        <div class=\"controls\">\r\n\r\n\t                        \t\t\t\t\t<select id=\"currency.id\" name=\"currency.id\"><option value=\"1\">FJD</option><option value=\"2\">MXN</option><option value=\"3\">STD</option><option value=\"4\">LVL</option><option value=\"5\">SCR</option><option value=\"6\">CDF</option><option value=\"7\">BBD</option><option value=\"8\">GTQ</option><option value=\"9\">CLP</option><option value=\"10\">HNL</option><option value=\"11\">UGX</option><option value=\"12\">ZAR</option><option value=\"13\">MXV</option><option value=\"14\">TND</option><option value=\"15\">BSD</option><option value=\"16\">SLL</option><option value=\"17\">SDG</option><option value=\"18\">IQD</option><option value=\"19\">CUP</option><option value=\"20\">GMD</option><option value=\"21\">TWD</option><option value=\"22\">RSD</option><option value=\"23\">DOP</option><option value=\"24\">KMF</option><option value=\"25\">MYR</option><option value=\"26\">FKP</option><option value=\"27\">XOF</option><option value=\"28\">GEL</option><option value=\"29\">UYU</option><option value=\"30\">MAD</option><option value=\"31\">CVE</option><option value=\"32\">AZN</option><option value=\"33\">OMR</option><option value=\"34\">PGK</option><option value=\"35\">KES</option><option value=\"36\">SEK</option><option value=\"37\">BTN</option><option value=\"38\">UAH</option><option value=\"39\">GNF</option><option value=\"40\">ERN</option><option value=\"41\">MZN</option><option value=\"42\">SVC</option><option value=\"43\">ARS</option><option value=\"44\">QAR</option><option value=\"45\">IRR</option><option value=\"46\">MRO</option><option value=\"47\">CNY</option><option value=\"48\">XPF</option><option value=\"49\">THB</option><option value=\"50\">UZS</option><option value=\"51\">BDT</option><option value=\"52\">LYD</option><option value=\"53\">BMD</option><option value=\"54\">KWD</option><option value=\"55\">PHP</option><option value=\"56\">RUB</option><option value=\"57\">PYG</option><option value=\"58\">ISK</option><option value=\"59\">JMD</option><option value=\"60\">COP</option><option value=\"61\">USD</option><option value=\"62\">MKD</option><option value=\"63\">DZD</option><option value=\"64\">PAB</option><option value=\"65\">SGD</option><option value=\"66\">ETB</option><option value=\"67\">KGS</option><option value=\"68\">SOS</option><option value=\"69\">VUV</option><option value=\"70\">VEF</option><option value=\"71\">LAK</option><option value=\"72\">BND</option><option value=\"73\">ZMK</option><option value=\"74\">XAF</option><option value=\"75\">LRD</option><option value=\"76\">HRK</option><option value=\"77\">CHF</option><option value=\"78\">ALL</option><option value=\"79\">DJF</option><option value=\"80\">TZS</option><option value=\"81\">VND</option><option value=\"82\">AUD</option><option value=\"83\">ILS</option><option value=\"84\">GHS</option><option value=\"85\">GYD</option><option value=\"86\">KPW</option><option value=\"87\">BOB</option><option value=\"88\">KHR</option><option value=\"89\">MDL</option><option value=\"90\">IDR</option><option value=\"91\">KYD</option><option value=\"92\">AMD</option><option value=\"93\">BWP</option><option value=\"94\">SHP</option><option value=\"95\">TRY</option><option value=\"96\">LBP</option><option value=\"97\">TJS</option><option value=\"98\">JOD</option><option value=\"99\">HKD</option><option value=\"100\">RWF</option><option value=\"101\">AED</option><option value=\"102\">EUR</option><option value=\"103\">LSL</option><option value=\"104\">DKK</option><option value=\"105\">CAD</option><option value=\"106\">BOV</option><option value=\"107\">BGN</option><option value=\"108\">MMK</option><option value=\"109\">NOK</option><option value=\"110\">MUR</option><option value=\"111\">SYP</option><option value=\"112\">GIP</option><option value=\"113\">RON</option><option value=\"114\">LKR</option><option value=\"115\">NGN</option><option value=\"116\">CRC</option><option value=\"117\">CZK</option><option value=\"118\">PKR</option><option value=\"119\">XCD</option><option value=\"120\">ANG</option><option value=\"121\">HTG</option><option value=\"122\">BHD</option><option value=\"123\">KZT</option><option value=\"124\">SRD</option><option value=\"125\">SZL</option><option value=\"126\">LTL</option><option value=\"127\">SAR</option><option value=\"128\">TTD</option><option value=\"129\">YER</option><option value=\"130\">MVR</option><option value=\"131\">AFN</option><option value=\"132\">INR</option><option value=\"133\">AWG</option><option value=\"134\">KRW</option><option value=\"135\">NPR</option><option value=\"136\">JPY</option><option value=\"137\">MNT</option><option value=\"138\">AOA</option><option value=\"139\">PLN</option><option value=\"140\">GBP</option><option value=\"141\">SBD</option><option value=\"142\">HUF</option><option value=\"143\">BYR</option><option value=\"144\" selected=\"selected\">BIF</option><option value=\"145\">MWK</option><option value=\"146\">MGA</option><option value=\"147\">XDR</option><option value=\"148\">BZD</option><option value=\"149\">BAM</option><option value=\"150\">EGP</option><option value=\"151\">MOP</option><option value=\"152\">NAD</option><option value=\"153\">NIO</option><option value=\"154\">PEN</option><option value=\"155\">NZD</option><option value=\"156\">WST</option><option value=\"157\">CLF</option><option value=\"158\">BRL</option></select> \r\n\t                                   \t\t\t<span class=\"help-inline\"></span>\r\n\t                        </div>\r\n\t                  </div>\r\n\t                  \r\n\t                  <div class=\"control-group\">\r\n\t                        <label>National currency format</label>\r\n\t                        <div class=\"controls\">\r\n\r\n\t                        \t\t\t\t\t<input id=\"currencyFormatNational1\" name=\"currencyFormatNational\" type=\"checkbox\" value=\"true\" checked=\"checked\"/><input type=\"hidden\" name=\"_currencyFormatNational\" value=\"on\"/> \r\n\t                                   \t\t\t<span class=\"help-inline\">National currency format ex $1,345.79 or International currency format ex USD1,345.79</span>\r\n\t                        </div>\r\n\t                  </div>\r\n\t  \r\n\t  \r\n\t  \t               <div class=\"control-group\">\r\n\t                        <label>Weight units</label>\r\n\t                        <div class=\"controls\">\r\n\r\n\t                        \t\t\t\t\t<select id=\"weightunitcode\" name=\"weightunitcode\"><option value=\"LB\">Pounds</option><option value=\"KG\" selected=\"selected\">Kilograms</option></select> \r\n\t                                   \t\t\t<span class=\"help-inline\"></span>\r\n\t                        </div>\r\n\t                  </div>\r\n\t                  \r\n\t                  \r\n\t                  <div class=\"control-group\">\r\n\t                        <label>Size units</label>\r\n\t                        <div class=\"controls\">\r\n\r\n\t                        \t\t\t\t\t<select id=\"seizeunitcode\" name=\"seizeunitcode\"><option value=\"CM\" selected=\"selected\">Centimeters</option><option value=\"IN\">Inches</option></select> \r\n\t                                   \t\t\t<span class=\"help-inline\"></span>\r\n\t                        </div>\r\n\t                  </div>\r\n\t                  \r\n\t                  \r\n\t                  <div class=\"control-group\">\r\n\t                        <label>Web site operating since</label>\r\n\t                        <div class=\"controls\">\r\n\t                        \t\t\t\t\t<input id=\"dateBusinessSince\" name=\"dateBusinessSince\" value=\"1800-12-11\" class=\"small\" type=\"text\" data-date-format=\"yyyy-MM-dd\" data-datepicker=\"datepicker\"> \r\n\t                                   \t\t\t <span class=\"help-inline\"></span>\r\n\t                        </div>\r\n\t                  </div>\r\n\t                  \r\n\t                  <div class=\"control-group\">\r\n\t                        <label>Use cache</label>\r\n\t                        <div class=\"controls\">\r\n\r\n\t                        \t\t\t\t\t<input id=\"useCache1\" name=\"useCache\" type=\"checkbox\" value=\"true\"/><input type=\"hidden\" name=\"_useCache\" value=\"on\"/> \r\n\t                                   \t\t\t<span class=\"help-inline\"></span>\r\n\t                        </div>\r\n\t                  </div>\r\n\t                  \r\n\t                  <div class=\"control-group\">\r\n\t                        <label>Store base url (domain)</label>\r\n\t                        <div class=\"controls\">\r\n\t                                    <span class=\"add-on\">\r\n\t\t\t\t\t\t\t\t\t\t\thttp://\r\n\t\t\t\t\t\t\t\t\t\t</span>\r\n\t\t\t\t\t\t\t\t\t\t<input id=\"domainName\" name=\"domainName\" class=\"input-medium highlight\" type=\"text\" value=\"localhost:8080\"/>\r\n\t                                    <span class=\"help-inline\"></span>\r\n\t                        </div>\r\n\t                  </div>\r\n\t                  \r\n\t                  <input id=\"id\" name=\"id\" type=\"hidden\" value=\"1\"/>\r\n\t                  <input id=\"storeLogo\" name=\"storeLogo\" type=\"hidden\" value=\"\"/>\r\n\t                  <input id=\"storeTemplate\" name=\"storeTemplate\" type=\"hidden\" value=\"december\"/>\r\n\r\n\t\t\t\t      <div class=\"form-actions\">\r\n\t                  \t\t<div class=\"pull-right\">\r\n\t                  \t\t\t<button type=\"submit\" class=\"btn btn-success\">Submit</button>\r\n\t                  \t\t</div>\r\n\t            \t </div>\r\n\r\n\r\n      \t\t\t\t\t\r\n\t\t\t\t</form>\r\n\t\t\t\t\r\n\t\t\t\t\r\n\t\t\t\t\r\n\t\t\t\t\r\n\r\n\t\t\t\t\r\n\t\t\t\t\r\n\t\t\t\t\r\n\t\t\t\t\r\n\r\n\r\n</div>\r\n\r\n\t\t\t</div>\r\n\r\n\r\n\t\t</div>\r\n\r\n\r\n\r\n  \r\n\t\t<hr> \r\n  \r\n  \r\n\t\t<footer> \r\n \t\t\t<p>&copy; Shopizer 2010-2020</p> \r\n\t\t</footer> \r\n  \r\n  \r\n\t</div> <!-- /container --> \r\n\t\r\n\r\n  \r\n</div>\r\n\r\n    <!-- Le javascript\r\n    ================================================== -->\r\n    <!-- Placed at the end of the document so the pages load faster -->\r\n    <script src=\"/resources/js/bootstrap/bootstrap-button.js\"></script>\r\n    <script src=\"/resources/js/bootstrap/bootstrap-modal.js\"></script>\r\n    <script src=\"/resources/js/bootstrap/bootstrap-tab.js\"></script>\r\n    <script src=\"/resources/js/bootstrap/bootstrap-transition.js\"></script>\r\n    <script src=\"/resources/js/bootstrap/bootstrap-alert.js\"></script>\r\n    \r\n    <script src=\"/resources/js/bootstrap/bootstrap-dropdown.js\"></script>\r\n    <script src=\"/resources/js/bootstrap/bootstrap-scrollspy.js\"></script>\r\n    \r\n    <script src=\"/resources/js/bootstrap/bootstrap-tooltip.js\"></script>\r\n    <script src=\"/resources/js/bootstrap/bootstrap-popover.js\"></script>\r\n    \r\n    <script src=\"/resources/js/bootstrap/bootstrap-collapse.js\"></script>\r\n    <script src=\"/resources/js/bootstrap/bootstrap-carousel.js\"></script>\r\n    <script src=\"/resources/js/bootstrap/bootstrap-typeahead.js\"></script>\r\n     \r\n\r\n    \r\n     \t\r\n     \t\r\n     <script>\r\n\t\r\n\t\t$(document).ready(function(){ \r\n\t\t\t\r\n\r\n\t\t\t$(\"#catalogue-categories-list-link\").click(function() {\r\n\t\t\t\twindow.location='/admin/categories/categories.html';\r\n\t\t\t});\r\n\t\t\t$(\"#catalogue-products-categories-link\").click(function() {\r\n\t\t\t\twindow.location='/admin/products/product-categories.html';\r\n\t\t\t});\r\n\t\t\t$(\"#catalogue-categories-hierarchy-link\").click(function() {\r\n\t\t\t\twindow.location='/admin/categories/hierarchy.html';\r\n\t\t\t});\r\n\t\t\t$(\"#catalogue-categories-create-link\").click(function() {\r\n  \t\t\t\twindow.location='/admin/categories/createCategory.html';\r\n\t\t\t});\r\n\t\t\t$(\"#catalogue-options-list-link\").click(function() {\r\n  \t\t\t\twindow.location='/admin/options/options.html';\r\n\t\t\t});\r\n\t\t\t$(\"#catalogue-options-create-link\").click(function() {\r\n  \t\t\t\twindow.location='/admin/options/createOption.html';\r\n\t\t\t});\r\n\t\t\t$(\"#catalogue-optionsvalues-list-link\").click(function() {\r\n  \t\t\t\twindow.location='/admin/options/optionvalues.html';\r\n\t\t\t});\r\n\t\t\t$(\"#catalogue-optionsvalues-create-link\").click(function() {\r\n  \t\t\t\twindow.location='/admin/options/createOptionValue.html';\r\n\t\t\t});\r\n\t\t\t$(\"#catalogue-featured-link\").click(function() {\r\n  \t\t\t\twindow.location='/admin/catalogue/featured/list.html';\r\n\t\t\t});\r\n\t\t\t$(\"#catalogue-products-custom-group-link\").click(function() {\r\n  \t\t\t\twindow.location='/admin/products/groups/list.html';\r\n\t\t\t});\r\n\t\t\t$(\"#manufacturer-list-link\").click(function() {\r\n  \t\t\t\twindow.location='/admin/catalogue/manufacturer/list.html';\r\n\t\t\t});\r\n\t\t\t$(\"#manufacturer-create-link\").click(function() {\r\n  \t\t\t\twindow.location='/admin/catalogue/manufacturer/create.html';\r\n\t\t\t});\r\n\t\t\t$(\"#myprofile-link\").click(function() {\r\n  \t\t\t\twindow.location='/admin/users/displayUser.html';\r\n\t\t\t});\r\n\t\t\t$(\"#user-link\").click(function() {\r\n  \t\t\t\twindow.location='/admin/users/displayUser.html';\r\n\t\t\t});\r\n\t\t\t$(\"#change-password-link\").click(function() {\r\n  \t\t\t\twindow.location='/admin/users/password.html';\r\n\t\t\t});\r\n\t\t\t$(\"#users-link\").click(function() {\r\n  \t\t\t\twindow.location='/admin/users/list.html';\r\n\t\t\t});\r\n\t\t\t$(\"#create-user-link\").click(function() {\r\n  \t\t\t\twindow.location='/admin/users/createUser.html';\r\n\t\t\t});\r\n\t\t\t$(\"#security-permissions-link\").click(function() {\r\n  \t\t\t\twindow.location='/admin/user/permissions.html';\r\n\t\t\t});\r\n\t\t\t$(\"#security-groups-link\").click(function() {\r\n  \t\t\t\twindow.location='/admin/user/groups.html';\r\n\t\t\t});\r\n\t\t\t$(\"#customer-list-link\").click(function() {\r\n  \t\t\t\twindow.location='/admin/customers/list.html';\r\n\t\t\t});\r\n\t\t\t$(\"#customer-create-link\").click(function() {\r\n  \t\t\t\twindow.location='/admin/customers/customer.html';\r\n\t\t\t});\r\n\t\t\t$(\"#customer-options-list-link\").click(function() {\r\n  \t\t\t\twindow.location='/admin/customers/options/list.html';\r\n\t\t\t});\r\n\t\t\t$(\"#customer-options-create-link\").click(function() {\r\n  \t\t\t\twindow.location='/admin/customers/options/create.html';\r\n\t\t\t});\r\n\t\t\t$(\"#customer-options-values-list-link\").click(function() {\r\n  \t\t\t\twindow.location='/admin/customers/options/values/list.html';\r\n\t\t\t});\r\n\t\t\t$(\"#customer-options-values-create-link\").click(function() {\r\n  \t\t\t\twindow.location='/admin/customers/options/values/create.html';\r\n\t\t\t});\r\n\t\t\t$(\"#customer-options-set-link\").click(function() {\r\n  \t\t\t\twindow.location='/admin/customers/optionsset/list.html';\r\n\t\t\t});\r\n\t\t\t$(\"#order-list-link\").click(function() {\r\n  \t\t\t\twindow.location='/admin/orders/list.html';\r\n\t\t\t});\r\n\t\t\t$(\"#storeDetails-link\").click(function() {\r\n  \t\t\t\twindow.location='/admin/store/store.html';\r\n\t\t\t});\r\n\t\t\t$(\"#create-store-link\").click(function() {\r\n  \t\t\t\twindow.location='/admin/store/storeCreate.html';\r\n\t\t\t});\r\n\t\t\t$(\"#store-list-link\").click(function() {\r\n  \t\t\t\twindow.location='/admin/store/list.html';\r\n\t\t\t});\r\n\t\t\t$(\"#storeBranding-link\").click(function() {\r\n  \t\t\t\twindow.location='/admin/store/storeBranding.html';\r\n\t\t\t});\r\n\t\t\t$(\"#storeLanding-link\").click(function() {\r\n  \t\t\t\twindow.location='/admin/store/storeLanding.html';\r\n\t\t\t});\r\n\t\t\t$(\"#content-link\").click(function() {\r\n  \t\t\t\twindow.location='/admin/content/contentImages.html';\r\n\t\t\t});\r\n\t\t\t$(\"#content-images-create-link\").click(function() {\r\n  \t\t\t\twindow.location='/admin/content/createContentImages.html';\r\n\t\t\t});\r\n\t\t\t$(\"#content-pages-link\").click(function() {\r\n  \t\t\t\twindow.location='/admin/content/pages/list.html';\r\n\t\t\t});\r\n\t\t\t$(\"#content-pages-create-link\").click(function() {\r\n  \t\t\t\twindow.location='/admin/content/pages/create.html';\r\n\t\t\t});\r\n\t\t\t$(\"#content-boxes-link\").click(function() {\r\n  \t\t\t\twindow.location='/admin/content/boxes/list.html';\r\n\t\t\t});\r\n\t\t\t$(\"#content-boxes-create-link\").click(function() {\r\n  \t\t\t\twindow.location='/admin/content/boxes/create.html';\r\n\t\t\t});\r\n\t\t\t$(\"#content-files-link\").click(function() {\r\n  \t\t\t\twindow.location='/admin/content/static/contentFiles.html';\r\n\t\t\t});\r\n\t\t\t$(\"#content-images-link\").click(function() {\r\n  \t\t\t\twindow.location='/admin/content/contentImages.html';\r\n\t\t\t});\r\n\t\t\t$(\"#shipping-configs-link\").click(function() {\r\n  \t\t\t\twindow.location='/admin/shipping/shippingConfigs.html';\r\n\t\t\t});\r\n\t\t\t$(\"#shipping-methods-link\").click(function() {\r\n  \t\t\t\twindow.location='/admin/shipping/shippingMethods.html';\r\n\t\t\t});\r\n\t\t\t$(\"#shipping-options-link\").click(function() {\r\n  \t\t\t\twindow.location='/admin/shipping/shippingOptions.html';\r\n\t\t\t});\r\n\t\t\t$(\"#shipping-origin-link\").click(function() {\r\n  \t\t\t\twindow.location='/admin/shipping/origin/get.html';\r\n\t\t\t});\r\n\t\t\t$(\"#shipping-packages-link\").click(function() {\r\n  \t\t\t\twindow.location='/admin/shipping/shippingPackaging.html';\r\n\t\t\t});\r\n\t\t\t$(\"#accounts-conf-link\").click(function() {\r\n  \t\t\t\twindow.location='/admin/configuration/accounts.html';\r\n\t\t\t});\r\n\t\t\t$(\"#email-conf-link\").click(function() {\r\n  \t\t\t\twindow.location='/admin/configuration/email.html';\r\n\t\t\t});\r\n\t\t\t$(\"#system-configurations-link\").click(function() {\r\n  \t\t\t\twindow.location='/admin/configuration/system.html';\r\n\t\t\t});\r\n\t\t\t$(\"#taxclass-link\").click(function() {\r\n  \t\t\t\twindow.location='/admin/tax/taxclass/list.html';\r\n\t\t\t});\r\n\t\t\t$(\"#taxconfiguration-link\").click(function() {\r\n  \t\t\t\twindow.location='/admin/tax/taxconfiguration/edit.html';\r\n\t\t\t});\r\n\t\t\t$(\"#taxrates-link\").click(function() {\r\n  \t\t\t\twindow.location='/admin/tax/taxrates/list.html';\r\n\t\t\t});\t\t\r\n\r\n\t\t}); \r\n\t\t\r\n\t\tfunction isEmpty(val){\r\n            return (val === undefined || val == null || val.length <= 0) ? true : false;\r\n        }\r\n\r\n\t\tfunction checkCode(code, id, url) {\r\n\t\t\t\r\n             if(isEmpty(code))  return ;\r\n\t\t\t\r\n\t\t\t$.ajax({\r\n\t\t\t\t\ttype: 'POST',\r\n\t\t\t\t\tdataType: \"json\",\r\n\t\t\t\t\turl: url,\r\n\t\t\t\t\tdata: \"code=\"+ code + \"&id=\" + id,\r\n\t\t\t\t\tsuccess: function(response) { \r\n\t\t\t\t\t\tvar msg = isc.XMLTools.selectObjects(response, \"/response/statusMessage\");\r\n\t\t\t\t\t\tvar status = isc.XMLTools.selectObjects(response, \"/response/status\");\r\n\t\t\t\t\t\t\r\n\t\t\t\t\t\tcallBackCheckCode(msg,status);\r\n\r\n\t\t\t\t\t\t\r\n\t\t\t\t\t},\r\n\t\t\t\t\terror: function(jqXHR,textStatus,errorThrown) { \r\n\t\t\t\t\t\talert(jqXHR + \"-\" + textStatus + \"-\" + errorThrown);\r\n\t\t\t\t\t}\r\n\t\t\t\t\t\r\n\t\t\t});\r\n\t\t\t\r\n\t\t\t\r\n\t\t\t\r\n\t\t}\r\n\t\r\n</script>\t\r\n     \t\r\n         \r\n \r\n \t</body>\r\n \r\n </html>\r\n \r\n"
          },
          "redirectURL": "",
          "headersSize": 587,
          "bodySize": 37284
        },
        "cache": {},
        "timings": {
          "blocked": 0,
          "dns": 0,
          "connect": 0,
          "ssl": 0,
          "send": 0,
          "wait": 133,
          "receive": 0
        },
        "time": 133,
        "_securityState": "insecure",
        "serverIPAddress": "::1",
        "connection": "8080"
      }
    ]
  }
}