{
  "log": {
    "version": "1.2",
    "creator": {
      "name": "Firefox",
      "version": "78.0.2"
    },
    "browser": {
      "name": "Firefox",
      "version": "78.0.2"
    },
    "pages": [
      {
        "startedDateTime": "2020-11-11T09:35:20.194+13:00",
        "id": "page_1",
        "title": "Test4 #1 Console [Jenkins]",
        "pageTimings": {
          "onContentLoad": 493,
          "onLoad": 639
        }
      }
    ],
    "entries": [
      {
        "pageref": "page_1",
        "startedDateTime": "2020-11-11T09:35:23.604+13:00",
        "request": {
          "bodySize": 341,
          "method": "POST",
          "url": "http://localhost:8080/view/all/createItem",
          "httpVersion": "HTTP/1.1",
          "headers": [
            {
              "name": "Host",
              "value": "localhost:8080"
            },
            {
              "name": "User-Agent",
              "value": "Mozilla/5.0 (Windows NT 10.0; Win64; x64; rv:78.0) Gecko/20100101 Firefox/78.0"
            },
            {
              "name": "Accept",
              "value": "text/html,application/xhtml+xml,application/xml;q=0.9,image/webp,*/*;q=0.8"
            },
            {
              "name": "Accept-Language",
              "value": "en-US,en;q=0.5"
            },
            {
              "name": "Accept-Encoding",
              "value": "gzip, deflate"
            },
            {
              "name": "Referer",
              "value": "http://localhost:8080/view/all/newJob"
            },
            {
              "name": "Content-Type",
              "value": "application/x-www-form-urlencoded"
            },
            {
              "name": "Content-Length",
              "value": "341"
            },
            {
              "name": "Origin",
              "value": "http://localhost:8080"
            },
            {
              "name": "DNT",
              "value": "1"
            },
            {
              "name": "Connection",
              "value": "keep-alive"
            },
            {
              "name": "Cookie",
              "value": "cookieconsent_status=dismiss; JSESSIONID=node04lnw24xa99m17wgmeg22234c3.node0; screenResolution=1920x1080"
            },
            {
              "name": "Upgrade-Insecure-Requests",
              "value": "1"
            },
            {
              "name": "Pragma",
              "value": "no-cache"
            },
            {
              "name": "Cache-Control",
              "value": "no-cache"
            }
          ],
          "cookies": [
            {
              "name": "cookieconsent_status",
              "value": "dismiss"
            },
            {
              "name": "JSESSIONID",
              "value": "node04lnw24xa99m17wgmeg22234c3.node0"
            },
            {
              "name": "screenResolution",
              "value": "1920x1080"
            }
          ],
          "queryString": [],
          "headersSize": 670,
          "postData": {
            "mimeType": "application/x-www-form-urlencoded",
            "params": [
              {
                "name": "name",
                "value": "Test4"
              },
              {
                "name": "mode",
                "value": "hudson.model.FreeStyleProject"
              },
              {
                "name": "from",
                "value": ""
              },
              {
                "name": "Jenkins-Crumb",
                "value": "7c283196ba5edca883f105e9e479e90bac587f7c4028fa87c46e2a1e4393437e"
              },
              {
                "name": "json",
                "value": "{\"name\": \"Test4\", \"mode\": \"hudson.model.FreeStyleProject\", \"from\": \"\", \"Jenkins-Crumb\": \"7c283196ba5edca883f105e9e479e90bac587f7c4028fa87c46e2a1e4393437e\"}"
              }
            ],
            "text": "name=Test4&mode=hudson.model.FreeStyleProject&from=&Jenkins-Crumb=7c283196ba5edca883f105e9e479e90bac587f7c4028fa87c46e2a1e4393437e&json=%7B%22name%22%3A+%22Test4%22%2C+%22mode%22%3A+%22hudson.model.FreeStyleProject%22%2C+%22from%22%3A+%22%22%2C+%22Jenkins-Crumb%22%3A+%227c283196ba5edca883f105e9e479e90bac587f7c4028fa87c46e2a1e4393437e%22%7D"
          }
        },
        "response": {
          "status": 302,
          "statusText": "Found",
          "httpVersion": "HTTP/1.1",
          "headers": [
            {
              "name": "Date",
              "value": "Tue, 10 Nov 2020 20:35:23 GMT"
            },
            {
              "name": "X-Content-Type-Options",
              "value": "nosniff"
            },
            {
              "name": "Location",
              "value": "http://localhost:8080/job/Test4/configure"
            },
            {
              "name": "Content-Length",
              "value": "0"
            },
            {
              "name": "Server",
              "value": "Jetty(9.4.9.v20180320)"
            }
          ],
          "cookies": [],
          "content": {
            "mimeType": "text/html; charset=utf-8",
            "size": 46267,
            "comment": "Response bodies are not included."
          },
          "redirectURL": "http://localhost:8080/job/Test4/configure",
          "headersSize": 196,
          "bodySize": 6704
        },
        "cache": {},
        "timings": {
          "blocked": 0,
          "dns": 0,
          "connect": 0,
          "ssl": 0,
          "send": 0,
          "wait": 9,
          "receive": 0
        },
        "time": 9,
        "_securityState": "insecure",
        "serverIPAddress": "::1",
        "connection": "8080"
      },
      {
        "pageref": "page_1",
        "startedDateTime": "2020-11-11T09:35:24.739+13:00",
        "request": {
          "bodySize": 2,
          "method": "POST",
          "url": "http://localhost:8080/$stapler/bound/893062bc-dfff-45ab-8e41-0810a4d2e322/render",
          "httpVersion": "HTTP/1.1",
          "headers": [
            {
              "name": "Host",
              "value": "localhost:8080"
            },
            {
              "name": "User-Agent",
              "value": "Mozilla/5.0 (Windows NT 10.0; Win64; x64; rv:78.0) Gecko/20100101 Firefox/78.0"
            },
            {
              "name": "Accept",
              "value": "text/javascript, text/html, application/xml, text/xml, */*"
            },
            {
              "name": "Accept-Language",
              "value": "en-US,en;q=0.5"
            },
            {
              "name": "Accept-Encoding",
              "value": "gzip, deflate"
            },
            {
              "name": "Referer",
              "value": "http://localhost:8080/job/Test4/configure"
            },
            {
              "name": "X-Requested-With",
              "value": "XMLHttpRequest"
            },
            {
              "name": "X-Prototype-Version",
              "value": "1.7"
            },
            {
              "name": "Content-type",
              "value": "application/x-stapler-method-invocation;charset=UTF-8"
            },
            {
              "name": "Crumb",
              "value": "7c283196ba5edca883f105e9e479e90bac587f7c4028fa87c46e2a1e4393437e"
            },
            {
              "name": "Jenkins-Crumb",
              "value": "7c283196ba5edca883f105e9e479e90bac587f7c4028fa87c46e2a1e4393437e"
            },
            {
              "name": "Content-Length",
              "value": "2"
            },
            {
              "name": "Origin",
              "value": "http://localhost:8080"
            },
            {
              "name": "DNT",
              "value": "1"
            },
            {
              "name": "Connection",
              "value": "keep-alive"
            },
            {
              "name": "Cookie",
              "value": "cookieconsent_status=dismiss; JSESSIONID=node04lnw24xa99m17wgmeg22234c3.node0; screenResolution=1920x1080"
            },
            {
              "name": "Pragma",
              "value": "no-cache"
            },
            {
              "name": "Cache-Control",
              "value": "no-cache"
            }
          ],
          "cookies": [
            {
              "name": "cookieconsent_status",
              "value": "dismiss"
            },
            {
              "name": "JSESSIONID",
              "value": "node04lnw24xa99m17wgmeg22234c3.node0"
            },
            {
              "name": "screenResolution",
              "value": "1920x1080"
            }
          ],
          "queryString": [],
          "headersSize": 899,
          "postData": {
            "mimeType": "application/x-stapler-method-invocation;charset=UTF-8",
            "params": [],
            "text": "[]"
          }
        },
        "response": {
          "status": 200,
          "statusText": "OK",
          "httpVersion": "HTTP/1.1",
          "headers": [
            {
              "name": "Date",
              "value": "Tue, 10 Nov 2020 20:35:24 GMT"
            },
            {
              "name": "X-Content-Type-Options",
              "value": "nosniff"
            },
            {
              "name": "Cache-Control",
              "value": "no-cache,no-store,must-revalidate"
            },
            {
              "name": "Content-Type",
              "value": "text/html;charset=utf-8"
            },
            {
              "name": "Content-Encoding",
              "value": "gzip"
            },
            {
              "name": "Content-Length",
              "value": "687"
            },
            {
              "name": "Server",
              "value": "Jetty(9.4.9.v20180320)"
            }
          ],
          "cookies": [],
          "content": {
            "mimeType": "text/html; charset=utf-8",
            "size": 2650,
            "text": "<tr><td class=\"setting-leftspace\"> </td><td class=\"setting-name\">Days to keep builds</td><td class=\"setting-main\"><input step=\"1\" min=\"1\" name=\"_.daysToKeepStr\" type=\"number\" class=\"setting-input  positive-number\" value=\"\" /></td><td class=\"setting-no-help\"></td></tr><tr class=\"validation-error-area\"><td colspan=\"2\"></td><td></td><td></td></tr><tr><td colspan=\"2\"></td><td class=\"setting-description\">if not empty, build records are only kept up to this number of days</td><td></td></tr><tr><td class=\"setting-leftspace\"> </td><td class=\"setting-name\">Max # of builds to keep</td><td class=\"setting-main\"><input step=\"1\" min=\"1\" name=\"_.numToKeepStr\" type=\"number\" class=\"setting-input  positive-number\" value=\"\" /></td><td class=\"setting-no-help\"></td></tr><tr class=\"validation-error-area\"><td colspan=\"2\"></td><td></td><td></td></tr><tr><td colspan=\"2\"></td><td class=\"setting-description\">if not empty, only up to this number of build records are kept</td><td></td></tr><tr><td></td><td></td><td><script src='/adjuncts/c10e189e/lib/form/advanced/advanced.js' type='text/javascript'></script><div style=\"\" class=\"advancedLink\"><span style=\"display: none\" id=\"id521\"><img src=\"/static/c10e189e/images/24x24/notepad.png\" tooltip=\"One or more fields in this block have been edited.\" style=\"width: 24px; height: 24px; vertical-align: baseline\" class=\"icon-notepad icon-md\" /></span> <input type=\"button\" value=\"Advanced...\" class=\"advanced-button advancedButton\" /></div><table class=\"advancedBody\"><tbody><tr><td class=\"setting-leftspace\"> </td><td class=\"setting-name\">Days to keep artifacts</td><td class=\"setting-main\"><input step=\"1\" min=\"1\" name=\"_.artifactDaysToKeepStr\" type=\"number\" class=\"setting-input  positive-number\" value=\"\" /></td><td class=\"setting-no-help\"></td></tr><tr class=\"validation-error-area\"><td colspan=\"2\"></td><td></td><td></td></tr><tr><td colspan=\"2\"></td><td class=\"setting-description\">if not empty, artifacts from builds older than this number of days will be deleted, but the logs, history, reports, etc for the build will be kept</td><td></td></tr><tr><td class=\"setting-leftspace\"> </td><td class=\"setting-name\">Max # of builds to keep with artifacts</td><td class=\"setting-main\"><input step=\"1\" min=\"1\" name=\"_.artifactNumToKeepStr\" type=\"number\" class=\"setting-input  positive-number\" value=\"\" /></td><td class=\"setting-no-help\"></td></tr><tr class=\"validation-error-area\"><td colspan=\"2\"></td><td></td><td></td></tr><tr><td colspan=\"2\"></td><td class=\"setting-description\">if not empty, only up to this number of builds have their artifacts retained</td><td></td></tr></tbody></table></td><td></td></tr>"
          },
          "redirectURL": "",
          "headersSize": 255,
          "bodySize": 942
        },
        "cache": {},
        "timings": {
          "blocked": 0,
          "dns": 0,
          "connect": 0,
          "ssl": 0,
          "send": 0,
          "wait": 13,
          "receive": 0
        },
        "time": 13,
        "_securityState": "insecure",
        "serverIPAddress": "::1",
        "connection": "8080"
      },
      {
        "pageref": "page_1",
        "startedDateTime": "2020-11-11T09:35:33.509+13:00",
        "request": {
          "bodySize": 2,
          "method": "POST",
          "url": "http://localhost:8080/$stapler/bound/bcde9551-fba9-41b8-bb62-c0f68ceca70b/render",
          "httpVersion": "HTTP/1.1",
          "headers": [
            {
              "name": "Host",
              "value": "localhost:8080"
            },
            {
              "name": "User-Agent",
              "value": "Mozilla/5.0 (Windows NT 10.0; Win64; x64; rv:78.0) Gecko/20100101 Firefox/78.0"
            },
            {
              "name": "Accept",
              "value": "text/javascript, text/html, application/xml, text/xml, */*"
            },
            {
              "name": "Accept-Language",
              "value": "en-US,en;q=0.5"
            },
            {
              "name": "Accept-Encoding",
              "value": "gzip, deflate"
            },
            {
              "name": "Referer",
              "value": "http://localhost:8080/job/Test4/configure"
            },
            {
              "name": "X-Requested-With",
              "value": "XMLHttpRequest"
            },
            {
              "name": "X-Prototype-Version",
              "value": "1.7"
            },
            {
              "name": "Content-type",
              "value": "application/x-stapler-method-invocation;charset=UTF-8"
            },
            {
              "name": "Crumb",
              "value": "7c283196ba5edca883f105e9e479e90bac587f7c4028fa87c46e2a1e4393437e"
            },
            {
              "name": "Jenkins-Crumb",
              "value": "7c283196ba5edca883f105e9e479e90bac587f7c4028fa87c46e2a1e4393437e"
            },
            {
              "name": "Content-Length",
              "value": "2"
            },
            {
              "name": "Origin",
              "value": "http://localhost:8080"
            },
            {
              "name": "DNT",
              "value": "1"
            },
            {
              "name": "Connection",
              "value": "keep-alive"
            },
            {
              "name": "Cookie",
              "value": "cookieconsent_status=dismiss; JSESSIONID=node04lnw24xa99m17wgmeg22234c3.node0; screenResolution=1920x1080"
            },
            {
              "name": "Pragma",
              "value": "no-cache"
            },
            {
              "name": "Cache-Control",
              "value": "no-cache"
            }
          ],
          "cookies": [
            {
              "name": "cookieconsent_status",
              "value": "dismiss"
            },
            {
              "name": "JSESSIONID",
              "value": "node04lnw24xa99m17wgmeg22234c3.node0"
            },
            {
              "name": "screenResolution",
              "value": "1920x1080"
            }
          ],
          "queryString": [],
          "headersSize": 899,
          "postData": {
            "mimeType": "application/x-stapler-method-invocation;charset=UTF-8",
            "params": [],
            "text": "[]"
          }
        },
        "response": {
          "status": 200,
          "statusText": "OK",
          "httpVersion": "HTTP/1.1",
          "headers": [
            {
              "name": "Date",
              "value": "Tue, 10 Nov 2020 20:35:33 GMT"
            },
            {
              "name": "X-Content-Type-Options",
              "value": "nosniff"
            },
            {
              "name": "Cache-Control",
              "value": "no-cache,no-store,must-revalidate"
            },
            {
              "name": "Content-Type",
              "value": "text/html;charset=utf-8"
            },
            {
              "name": "Content-Encoding",
              "value": "gzip"
            },
            {
              "name": "Content-Length",
              "value": "882"
            },
            {
              "name": "Server",
              "value": "Jetty(9.4.9.v20180320)"
            }
          ],
          "cookies": [],
          "content": {
            "mimeType": "text/html; charset=utf-8",
            "size": 2350,
            "text": "<tr><td class=\"setting-leftspace\"> </td><td class=\"setting-name\">Command</td><td class=\"setting-main\"><link rel='stylesheet' href='/adjuncts/c10e189e/org/kohsuke/stapler/codemirror/lib/codemirror.css' type='text/css' /><script src='/adjuncts/c10e189e/org/kohsuke/stapler/codemirror/lib/codemirror.js' type='text/javascript'></script><script src='/adjuncts/c10e189e/org/kohsuke/stapler/codemirror/mode/shell/shell.js' type='text/javascript'></script><link rel='stylesheet' href='/adjuncts/c10e189e/org/kohsuke/stapler/codemirror/theme/default.css' type='text/css' /><textarea codemirror-config=\"mode: 'text/x-sh'\" codemirror-mode=\"shell\" name=\"command\" rows=\"5\" class=\"setting-input  codemirror fixed-width\"></textarea><div class=\"textarea-handle\"></div></td><td class=\"setting-no-help\"></td></tr><tr class=\"validation-error-area\"><td colspan=\"2\"></td><td></td><td></td></tr><tr><td colspan=\"2\"></td><td class=\"setting-description\">See <a href=\"/env-vars.html\" target=_new>the list of available environment variables</a></td><td></td></tr><tr><td></td><td></td><td><div style=\"\" class=\"advancedLink\"><span style=\"display: none\" id=\"id522\"><img src=\"/static/c10e189e/images/24x24/notepad.png\" tooltip=\"One or more fields in this block have been edited.\" style=\"width: 24px; height: 24px; vertical-align: baseline\" class=\"icon-notepad icon-md\" /></span> <input type=\"button\" value=\"Advanced...\" class=\"advanced-button advancedButton\" /></div><table class=\"advancedBody\"><tbody><tr><td class=\"setting-leftspace\"> </td><td class=\"setting-name\">Exit code to set build unstable</td><td class=\"setting-main\"><input checkDependsOn=\"\" min=\"1\" max=\"255\" step=\"1\" checkUrl=\"/job/Test4/descriptorByName/hudson.tasks.Shell/checkUnstableReturn\" name=\"_.unstableReturn\" type=\"number\" class=\"setting-input validated positive-number\" value=\"\" /></td><td class=\"setting-help\"><a helpURL=\"/descriptor/hudson.tasks.Shell/help/unstableReturn\" href=\"#\" class=\"help-button\"><img src=\"/static/c10e189e/images/16x16/help.png\" alt=\"Help for feature: Exit code to set build unstable\" style=\"width: 16px; height: 16px; \" class=\"icon-help icon-sm\" /></a></td></tr><tr class=\"validation-error-area\"><td colspan=\"2\"></td><td></td><td></td></tr><tr class=\"help-area\"><td></td><td colspan=\"2\"><div class=\"help\">Loading...</div></td><td></td></tr></tbody></table></td><td></td></tr>"
          },
          "redirectURL": "",
          "headersSize": 255,
          "bodySize": 1137
        },
        "cache": {},
        "timings": {
          "blocked": 1,
          "dns": 0,
          "connect": 0,
          "ssl": 0,
          "send": 0,
          "wait": 49,
          "receive": 0
        },
        "time": 50,
        "_securityState": "insecure",
        "serverIPAddress": "::1",
        "connection": "8080"
      },
      {
        "pageref": "page_1",
        "startedDateTime": "2020-11-11T09:35:45.936+13:00",
        "request": {
          "bodySize": 2127,
          "method": "POST",
          "url": "http://localhost:8080/job/Test4/configSubmit",
          "httpVersion": "HTTP/1.1",
          "headers": [
            {
              "name": "Host",
              "value": "localhost:8080"
            },
            {
              "name": "User-Agent",
              "value": "Mozilla/5.0 (Windows NT 10.0; Win64; x64; rv:78.0) Gecko/20100101 Firefox/78.0"
            },
            {
              "name": "Accept",
              "value": "text/html,application/xhtml+xml,application/xml;q=0.9,image/webp,*/*;q=0.8"
            },
            {
              "name": "Accept-Language",
              "value": "en-US,en;q=0.5"
            },
            {
              "name": "Accept-Encoding",
              "value": "gzip, deflate"
            },
            {
              "name": "Referer",
              "value": "http://localhost:8080/job/Test4/configure"
            },
            {
              "name": "Content-Type",
              "value": "application/x-www-form-urlencoded"
            },
            {
              "name": "Content-Length",
              "value": "2127"
            },
            {
              "name": "Origin",
              "value": "http://localhost:8080"
            },
            {
              "name": "DNT",
              "value": "1"
            },
            {
              "name": "Connection",
              "value": "keep-alive"
            },
            {
              "name": "Cookie",
              "value": "cookieconsent_status=dismiss; JSESSIONID=node04lnw24xa99m17wgmeg22234c3.node0; screenResolution=1920x1080"
            },
            {
              "name": "Upgrade-Insecure-Requests",
              "value": "1"
            },
            {
              "name": "Pragma",
              "value": "no-cache"
            },
            {
              "name": "Cache-Control",
              "value": "no-cache"
            }
          ],
          "cookies": [
            {
              "name": "cookieconsent_status",
              "value": "dismiss"
            },
            {
              "name": "JSESSIONID",
              "value": "node04lnw24xa99m17wgmeg22234c3.node0"
            },
            {
              "name": "screenResolution",
              "value": "1920x1080"
            }
          ],
          "queryString": [],
          "headersSize": 678,
          "postData": {
            "mimeType": "application/x-www-form-urlencoded",
            "params": [
              {
                "name": "description",
                "value": ""
              },
              {
                "name": "stapler-class-bag",
                "value": "true"
              },
              {
                "name": "_.daysToKeepStr",
                "value": ""
              },
              {
                "name": "_.numToKeepStr",
                "value": ""
              },
              {
                "name": "_.artifactDaysToKeepStr",
                "value": ""
              },
              {
                "name": "_.artifactNumToKeepStr",
                "value": ""
              },
              {
                "name": "stapler-class",
                "value": "hudson.tasks.LogRotator"
              },
              {
                "name": "$class",
                "value": "hudson.tasks.LogRotator"
              },
              {
                "name": "quiet_period",
                "value": "5"
              },
              {
                "name": "scmCheckoutRetryCount",
                "value": "0"
              },
              {
                "name": "_.customWorkspace",
                "value": ""
              },
              {
                "name": "_.displayNameOrNull",
                "value": ""
              },
              {
                "name": "scm",
                "value": "0"
              },
              {
                "name": "stapler-class",
                "value": "hudson.scm.NullSCM"
              },
              {
                "name": "$class",
                "value": "hudson.scm.NullSCM"
              },
              {
                "name": "authToken",
                "value": ""
              },
              {
                "name": "_.upstreamProjects",
                "value": ""
              },
              {
                "name": "ReverseBuildTrigger.threshold",
                "value": "SUCCESS"
              },
              {
                "name": "_.spec",
                "value": ""
              },
              {
                "name": "_.scmpoll_spec",
                "value": ""
              },
              {
                "name": "command",
                "value": "echo testtest"
              },
              {
                "name": "_.unstableReturn",
                "value": ""
              },
              {
                "name": "stapler-class",
                "value": "hudson.tasks.Shell"
              },
              {
                "name": "$class",
                "value": "hudson.tasks.Shell"
              },
              {
                "name": "core:apply",
                "value": ""
              },
              {
                "name": "Jenkins-Crumb",
                "value": "7c283196ba5edca883f105e9e479e90bac587f7c4028fa87c46e2a1e4393437e"
              },
              {
                "name": "json",
                "value": "{\"description\": \"\", \"properties\": {\"stapler-class-bag\": \"true\", \"jenkins-model-BuildDiscarderProperty\": {\"specified\": false, \"\": \"0\", \"strategy\": {\"daysToKeepStr\": \"\", \"numToKeepStr\": \"\", \"artifactDaysToKeepStr\": \"\", \"artifactNumToKeepStr\": \"\", \"stapler-class\": \"hudson.tasks.LogRotator\", \"$class\": \"hudson.tasks.LogRotator\"}}, \"hudson-model-ParametersDefinitionProperty\": {\"specified\": false}}, \"disable\": false, \"concurrentBuild\": false, \"hasCustomQuietPeriod\": false, \"quiet_period\": \"5\", \"hasCustomScmCheckoutRetryCount\": false, \"scmCheckoutRetryCount\": \"0\", \"blockBuildWhenUpstreamBuilding\": false, \"blockBuildWhenDownstreamBuilding\": false, \"hasCustomWorkspace\": false, \"customWorkspace\": \"\", \"displayNameOrNull\": \"\", \"scm\": {\"value\": \"0\", \"stapler-class\": \"hudson.scm.NullSCM\", \"$class\": \"hudson.scm.NullSCM\"}, \"builder\": {\"command\": \"echo testtest\", \"\": \"testtest\", \"unstableReturn\": \"\", \"stapler-class\": \"hudson.tasks.Shell\", \"$class\": \"hudson.tasks.Shell\"}, \"core:apply\": \"\", \"Jenkins-Crumb\": \"7c283196ba5edca883f105e9e479e90bac587f7c4028fa87c46e2a1e4393437e\"}"
              },
              {
                "name": "Submit",
                "value": "Save"
              }
            ],
            "text": "description=&stapler-class-bag=true&_.daysToKeepStr=&_.numToKeepStr=&_.artifactDaysToKeepStr=&_.artifactNumToKeepStr=&stapler-class=hudson.tasks.LogRotator&%24class=hudson.tasks.LogRotator&quiet_period=5&scmCheckoutRetryCount=0&_.customWorkspace=&_.displayNameOrNull=&scm=0&stapler-class=hudson.scm.NullSCM&%24class=hudson.scm.NullSCM&authToken=&_.upstreamProjects=&ReverseBuildTrigger.threshold=SUCCESS&_.spec=&_.scmpoll_spec=&command=echo+testtest&_.unstableReturn=&stapler-class=hudson.tasks.Shell&%24class=hudson.tasks.Shell&core%3Aapply=&Jenkins-Crumb=7c283196ba5edca883f105e9e479e90bac587f7c4028fa87c46e2a1e4393437e&json=%7B%22description%22%3A+%22%22%2C+%22properties%22%3A+%7B%22stapler-class-bag%22%3A+%22true%22%2C+%22jenkins-model-BuildDiscarderProperty%22%3A+%7B%22specified%22%3A+false%2C+%22%22%3A+%220%22%2C+%22strategy%22%3A+%7B%22daysToKeepStr%22%3A+%22%22%2C+%22numToKeepStr%22%3A+%22%22%2C+%22artifactDaysToKeepStr%22%3A+%22%22%2C+%22artifactNumToKeepStr%22%3A+%22%22%2C+%22stapler-class%22%3A+%22hudson.tasks.LogRotator%22%2C+%22%24class%22%3A+%22hudson.tasks.LogRotator%22%7D%7D%2C+%22hudson-model-ParametersDefinitionProperty%22%3A+%7B%22specified%22%3A+false%7D%7D%2C+%22disable%22%3A+false%2C+%22concurrentBuild%22%3A+false%2C+%22hasCustomQuietPeriod%22%3A+false%2C+%22quiet_period%22%3A+%225%22%2C+%22hasCustomScmCheckoutRetryCount%22%3A+false%2C+%22scmCheckoutRetryCount%22%3A+%220%22%2C+%22blockBuildWhenUpstreamBuilding%22%3A+false%2C+%22blockBuildWhenDownstreamBuilding%22%3A+false%2C+%22hasCustomWorkspace%22%3A+false%2C+%22customWorkspace%22%3A+%22%22%2C+%22displayNameOrNull%22%3A+%22%22%2C+%22scm%22%3A+%7B%22value%22%3A+%220%22%2C+%22stapler-class%22%3A+%22hudson.scm.NullSCM%22%2C+%22%24class%22%3A+%22hudson.scm.NullSCM%22%7D%2C+%22builder%22%3A+%7B%22command%22%3A+%22echo+testtest%22%2C+%22%22%3A+%22testtest%22%2C+%22unstableReturn%22%3A+%22%22%2C+%22stapler-class%22%3A+%22hudson.tasks.Shell%22%2C+%22%24class%22%3A+%22hudson.tasks.Shell%22%7D%2C+%22core%3Aapply%22%3A+%22%22%2C+%22Jenkins-Crumb%22%3A+%227c283196ba5edca883f105e9e479e90bac587f7c4028fa87c46e2a1e4393437e%22%7D&Submit=Save"
          }
        },
        "response": {
          "status": 302,
          "statusText": "Found",
          "httpVersion": "HTTP/1.1",
          "headers": [
            {
              "name": "Date",
              "value": "Tue, 10 Nov 2020 20:35:45 GMT"
            },
            {
              "name": "X-Content-Type-Options",
              "value": "nosniff"
            },
            {
              "name": "Location",
              "value": "http://localhost:8080/job/Test4/"
            },
            {
              "name": "Content-Length",
              "value": "0"
            },
            {
              "name": "Server",
              "value": "Jetty(9.4.9.v20180320)"
            }
          ],
          "cookies": [],
          "content": {
            "mimeType": "text/html; charset=utf-8",
            "size": 16745,
            "comment": "Response bodies are not included."
          },
          "redirectURL": "http://localhost:8080/job/Test4/",
          "headersSize": 187,
          "bodySize": 4419
        },
        "cache": {},
        "timings": {
          "blocked": 0,
          "dns": 0,
          "connect": 0,
          "ssl": 0,
          "send": 0,
          "wait": 9,
          "receive": 0
        },
        "time": 9,
        "_securityState": "insecure",
        "serverIPAddress": "::1",
        "connection": "8080"
      },
      {
        "pageref": "page_1",
        "startedDateTime": "2020-11-11T09:35:51.499+13:00",
        "request": {
          "bodySize": 0,
          "method": "POST",
          "url": "http://localhost:8080/job/Test4/buildHistory/ajax",
          "httpVersion": "HTTP/1.1",
          "headers": [
            {
              "name": "Host",
              "value": "localhost:8080"
            },
            {
              "name": "User-Agent",
              "value": "Mozilla/5.0 (Windows NT 10.0; Win64; x64; rv:78.0) Gecko/20100101 Firefox/78.0"
            },
            {
              "name": "Accept",
              "value": "text/javascript, text/html, application/xml, text/xml, */*"
            },
            {
              "name": "Accept-Language",
              "value": "en-US,en;q=0.5"
            },
            {
              "name": "Accept-Encoding",
              "value": "gzip, deflate"
            },
            {
              "name": "Referer",
              "value": "http://localhost:8080/job/Test4/"
            },
            {
              "name": "X-Requested-With",
              "value": "XMLHttpRequest"
            },
            {
              "name": "X-Prototype-Version",
              "value": "1.7"
            },
            {
              "name": "Content-type",
              "value": "application/x-www-form-urlencoded; charset=UTF-8"
            },
            {
              "name": "n",
              "value": "1"
            },
            {
              "name": "Jenkins-Crumb",
              "value": "7c283196ba5edca883f105e9e479e90bac587f7c4028fa87c46e2a1e4393437e"
            },
            {
              "name": "Content-Length",
              "value": "0"
            },
            {
              "name": "Origin",
              "value": "http://localhost:8080"
            },
            {
              "name": "DNT",
              "value": "1"
            },
            {
              "name": "Connection",
              "value": "keep-alive"
            },
            {
              "name": "Cookie",
              "value": "cookieconsent_status=dismiss; JSESSIONID=node04lnw24xa99m17wgmeg22234c3.node0; screenResolution=1920x1080"
            },
            {
              "name": "Pragma",
              "value": "no-cache"
            },
            {
              "name": "Cache-Control",
              "value": "no-cache"
            }
          ],
          "cookies": [
            {
              "name": "cookieconsent_status",
              "value": "dismiss"
            },
            {
              "name": "JSESSIONID",
              "value": "node04lnw24xa99m17wgmeg22234c3.node0"
            },
            {
              "name": "screenResolution",
              "value": "1920x1080"
            }
          ],
          "queryString": [],
          "headersSize": 787
        },
        "response": {
          "status": 200,
          "statusText": "OK",
          "httpVersion": "HTTP/1.1",
          "headers": [
            {
              "name": "Date",
              "value": "Tue, 10 Nov 2020 20:35:51 GMT"
            },
            {
              "name": "X-Content-Type-Options",
              "value": "nosniff"
            },
            {
              "name": "Content-Type",
              "value": "text/html;charset=utf-8"
            },
            {
              "name": "n",
              "value": "2"
            },
            {
              "name": "Cache-Control",
              "value": "no-cache,no-store,must-revalidate"
            },
            {
              "name": "Content-Encoding",
              "value": "gzip"
            },
            {
              "name": "Content-Length",
              "value": "455"
            },
            {
              "name": "Server",
              "value": "Jetty(9.4.9.v20180320)"
            }
          ],
          "cookies": [],
          "content": {
            "mimeType": "text/html; charset=utf-8",
            "size": 994,
            "text": "<table page-has-up=\"false\" page-has-down=\"false\" page-entry-newest=\"-9223372036854775807\" page-entry-oldest=\"-9223372036854775807\" class=\"pane hasPageData\"><tr page-entry-id=\"-9223372036854775807\" class=\"build-row  single-line\"><td class=\"build-row-cell\"><div class=\"pane build-name\"><div class=\"build-icon\"><a href=\"/job/Test4/1/console\" class=\"build-status-link\"><img src=\"/static/c10e189e/images/16x16/blue.png\" alt=\"Success &gt; Console Output\" tooltip=\"Success &gt; Console Output\" style=\"width: 16px; height: 16px; \" class=\"icon-blue icon-sm\" /></a></div><a update-parent-class=\".build-row\" href=\"/job/Test4/1/\" class=\"tip model-link inside build-link display-name\">#1</a></div><div time=\"1605040548970\" class=\"pane build-details\"><a update-parent-class=\".build-row\" href=\"/job/Test4/1/\" class=\"tip model-link inside build-link\">Nov 11, 2020 9:35 AM</a></div><div class=\"pane build-controls\"><div class=\"middle-align build-badge\"></div></div><div class=\"left-bar\"></div></td></tr></table>"
          },
          "redirectURL": "",
          "headersSize": 261,
          "bodySize": 716
        },
        "cache": {},
        "timings": {
          "blocked": 0,
          "dns": 0,
          "connect": 0,
          "ssl": 0,
          "send": 0,
          "wait": 2,
          "receive": 0
        },
        "time": 2,
        "_securityState": "insecure",
        "serverIPAddress": "::1",
        "connection": "8080"
      }
    ]
  }
}