{
  "log": {
    "version": "1.2",
    "creator": {
      "name": "Firefox",
      "version": "78.0.2"
    },
    "browser": {
      "name": "Firefox",
      "version": "78.0.2"
    },
    "pages": [
      {
        "startedDateTime": "2020-11-18T12:46:41.852+13:00",
        "id": "page_1",
        "title": "about:blank",
        "pageTimings": {
          "onContentLoad": 48,
          "onLoad": 82
        }
      }
    ],
    "entries": [
      {
        "pageref": "page_1",
        "startedDateTime": "2020-11-18T12:46:41.852+13:00",
        "request": {
          "bodySize": 0,
          "method": "POST",
          "url": "http://localhost:8080/job/B/build?delay=0sec",
          "httpVersion": "HTTP/1.1",
          "headers": [
            {
              "name": "Host",
              "value": "localhost:8080"
            },
            {
              "name": "User-Agent",
              "value": "Mozilla/5.0 (Windows NT 10.0; Win64; x64; rv:78.0) Gecko/20100101 Firefox/78.0"
            },
            {
              "name": "Accept",
              "value": "text/javascript, text/html, application/xml, text/xml, */*"
            },
            {
              "name": "Accept-Language",
              "value": "en-US,en;q=0.5"
            },
            {
              "name": "Accept-Encoding",
              "value": "gzip, deflate"
            },
            {
              "name": "Referer",
              "value": "http://localhost:8080/job/B/"
            },
            {
              "name": "X-Requested-With",
              "value": "XMLHttpRequest"
            },
            {
              "name": "X-Prototype-Version",
              "value": "1.7"
            },
            {
              "name": "Content-type",
              "value": "application/x-www-form-urlencoded; charset=UTF-8"
            },
            {
              "name": "Jenkins-Crumb",
              "value": "84dd86f884183a9d63952ef0745eebd43d6dc00db82898cb35146e79dfefcb45"
            },
            {
              "name": "Content-Length",
              "value": "0"
            },
            {
              "name": "Origin",
              "value": "http://localhost:8080"
            },
            {
              "name": "DNT",
              "value": "1"
            },
            {
              "name": "Connection",
              "value": "keep-alive"
            },
            {
              "name": "Cookie",
              "value": "cookieconsent_status=dismiss; JSESSIONID=node0rl1cfz09fj3pxum97o106br95.node0; screenResolution=1920x1080"
            },
            {
              "name": "Pragma",
              "value": "no-cache"
            },
            {
              "name": "Cache-Control",
              "value": "no-cache"
            }
          ],
          "cookies": [
            {
              "name": "cookieconsent_status",
              "value": "dismiss"
            },
            {
              "name": "JSESSIONID",
              "value": "node0rl1cfz09fj3pxum97o106br95.node0"
            },
            {
              "name": "screenResolution",
              "value": "1920x1080"
            }
          ],
          "queryString": [
            {
              "name": "delay",
              "value": "0sec"
            }
          ],
          "headersSize": 772
        },
        "response": {
          "status": 201,
          "statusText": "Created",
          "httpVersion": "HTTP/1.1",
          "headers": [
            {
              "name": "Date",
              "value": "Tue, 17 Nov 2020 23:46:41 GMT"
            },
            {
              "name": "X-Content-Type-Options",
              "value": "nosniff"
            },
            {
              "name": "Location",
              "value": "http://localhost:8080/queue/item/15/"
            },
            {
              "name": "Content-Length",
              "value": "0"
            },
            {
              "name": "Server",
              "value": "Jetty(9.4.9.v20180320)"
            }
          ],
          "cookies": [],
          "content": {
            "mimeType": "text/xml",
            "size": 0,
            "text": ""
          },
          "redirectURL": "http://localhost:8080/queue/item/15/",
          "headersSize": 193,
          "bodySize": 193
        },
        "cache": {},
        "timings": {
          "blocked": 0,
          "dns": 0,
          "connect": 0,
          "ssl": 0,
          "send": 0,
          "wait": 2,
          "receive": 0
        },
        "time": 2,
        "_securityState": "insecure",
        "serverIPAddress": "::1",
        "connection": "8080"
      },
      {
        "pageref": "page_1",
        "startedDateTime": "2020-11-18T12:46:43.340+13:00",
        "request": {
          "bodySize": 0,
          "method": "POST",
          "url": "http://localhost:8080/job/B/buildHistory/ajax",
          "httpVersion": "HTTP/1.1",
          "headers": [
            {
              "name": "Host",
              "value": "localhost:8080"
            },
            {
              "name": "User-Agent",
              "value": "Mozilla/5.0 (Windows NT 10.0; Win64; x64; rv:78.0) Gecko/20100101 Firefox/78.0"
            },
            {
              "name": "Accept",
              "value": "text/javascript, text/html, application/xml, text/xml, */*"
            },
            {
              "name": "Accept-Language",
              "value": "en-US,en;q=0.5"
            },
            {
              "name": "Accept-Encoding",
              "value": "gzip, deflate"
            },
            {
              "name": "Referer",
              "value": "http://localhost:8080/job/B/"
            },
            {
              "name": "X-Requested-With",
              "value": "XMLHttpRequest"
            },
            {
              "name": "X-Prototype-Version",
              "value": "1.7"
            },
            {
              "name": "Content-type",
              "value": "application/x-www-form-urlencoded; charset=UTF-8"
            },
            {
              "name": "n",
              "value": "9"
            },
            {
              "name": "Jenkins-Crumb",
              "value": "84dd86f884183a9d63952ef0745eebd43d6dc00db82898cb35146e79dfefcb45"
            },
            {
              "name": "Content-Length",
              "value": "0"
            },
            {
              "name": "Origin",
              "value": "http://localhost:8080"
            },
            {
              "name": "DNT",
              "value": "1"
            },
            {
              "name": "Connection",
              "value": "keep-alive"
            },
            {
              "name": "Cookie",
              "value": "cookieconsent_status=dismiss; JSESSIONID=node0rl1cfz09fj3pxum97o106br95.node0; screenResolution=1920x1080"
            },
            {
              "name": "Pragma",
              "value": "no-cache"
            },
            {
              "name": "Cache-Control",
              "value": "no-cache"
            }
          ],
          "cookies": [
            {
              "name": "cookieconsent_status",
              "value": "dismiss"
            },
            {
              "name": "JSESSIONID",
              "value": "node0rl1cfz09fj3pxum97o106br95.node0"
            },
            {
              "name": "screenResolution",
              "value": "1920x1080"
            }
          ],
          "queryString": [],
          "headersSize": 779
        },
        "response": {
          "status": 200,
          "statusText": "OK",
          "httpVersion": "HTTP/1.1",
          "headers": [
            {
              "name": "Date",
              "value": "Tue, 17 Nov 2020 23:46:43 GMT"
            },
            {
              "name": "X-Content-Type-Options",
              "value": "nosniff"
            },
            {
              "name": "Content-Type",
              "value": "text/html;charset=utf-8"
            },
            {
              "name": "n",
              "value": "9"
            },
            {
              "name": "Cache-Control",
              "value": "no-cache,no-store,must-revalidate"
            },
            {
              "name": "Content-Encoding",
              "value": "gzip"
            },
            {
              "name": "Content-Length",
              "value": "700"
            },
            {
              "name": "Server",
              "value": "Jetty(9.4.9.v20180320)"
            }
          ],
          "cookies": [],
          "content": {
            "mimeType": "text/html; charset=utf-8",
            "size": 1642,
            "text": "<table page-has-up=\"false\" page-has-down=\"false\" page-entry-newest=\"-9223372036854775799\" page-entry-oldest=\"-9223372036854775799\" class=\"pane hasPageData\"><tr page-entry-id=\"-9223372036854775799\" class=\"build-row transitive single-line\"><td class=\"build-row-cell\"><div class=\"pane build-name\"><div class=\"build-icon\"><a href=\"/job/B/9/console\" class=\"build-status-link\"><img src=\"/static/3082ce0d/images/16x16/blue_anime.gif\" alt=\"In progress &gt; Console Output\" tooltip=\"In progress &gt; Console Output\" style=\"width: 16px; height: 16px; \" class=\"icon-blue-anime icon-sm\" /></a></div><a update-parent-class=\".build-row\" href=\"/job/B/9/\" class=\"tip model-link inside build-link display-name\">#9</a></div><div time=\"1605656801857\" class=\"pane build-details\"><a update-parent-class=\".build-row\" href=\"/job/B/9/\" class=\"tip model-link inside build-link\">Nov 18, 2020 12:46 PM</a><table tooltip=\"Started 1.4 sec ago&lt;br&gt; Estimated remaining time: 17 sec\" style=\"cursor:pointer\" href=\"/job/B/9/console\" class=\"progress-bar \"><tbody><tr><td style=\"width:7%;\" class=\"progress-bar-done\"></td><td style=\"width:93%\" class=\"progress-bar-left\"></td></tr></tbody></table></div><div class=\"pane build-controls\"><div class=\"middle-align build-badge\"></div><div class=\"build-stop\"><a onclick=\"if(confirm(&quot;Are you sure you want to abort B #9?&quot;))new Ajax.Request(&quot;/job/B/9/stop&quot;); return false;\" href=\"/job/B/9/stop\" class=\"stop-button-link\"><img src=\"/static/3082ce0d/images/16x16/stop.png\" alt=\"[cancel]\" style=\"width: 16px; height: 16px; \" class=\"icon-stop icon-sm\" /></a></div></div><div class=\"left-bar\"></div></td></tr></table>"
          },
          "redirectURL": "",
          "headersSize": 261,
          "bodySize": 961
        },
        "cache": {},
        "timings": {
          "blocked": 0,
          "dns": 0,
          "connect": 0,
          "ssl": 0,
          "send": 0,
          "wait": 5,
          "receive": 0
        },
        "time": 5,
        "_securityState": "insecure",
        "serverIPAddress": "::1",
        "connection": "8080"
      },
      {
        "pageref": "page_1",
        "startedDateTime": "2020-11-18T12:46:48.399+13:00",
        "request": {
          "bodySize": 0,
          "method": "POST",
          "url": "http://localhost:8080/job/B/buildHistory/ajax",
          "httpVersion": "HTTP/1.1",
          "headers": [
            {
              "name": "Host",
              "value": "localhost:8080"
            },
            {
              "name": "User-Agent",
              "value": "Mozilla/5.0 (Windows NT 10.0; Win64; x64; rv:78.0) Gecko/20100101 Firefox/78.0"
            },
            {
              "name": "Accept",
              "value": "text/javascript, text/html, application/xml, text/xml, */*"
            },
            {
              "name": "Accept-Language",
              "value": "en-US,en;q=0.5"
            },
            {
              "name": "Accept-Encoding",
              "value": "gzip, deflate"
            },
            {
              "name": "Referer",
              "value": "http://localhost:8080/job/B/"
            },
            {
              "name": "X-Requested-With",
              "value": "XMLHttpRequest"
            },
            {
              "name": "X-Prototype-Version",
              "value": "1.7"
            },
            {
              "name": "Content-type",
              "value": "application/x-www-form-urlencoded; charset=UTF-8"
            },
            {
              "name": "n",
              "value": "9"
            },
            {
              "name": "Jenkins-Crumb",
              "value": "84dd86f884183a9d63952ef0745eebd43d6dc00db82898cb35146e79dfefcb45"
            },
            {
              "name": "Content-Length",
              "value": "0"
            },
            {
              "name": "Origin",
              "value": "http://localhost:8080"
            },
            {
              "name": "DNT",
              "value": "1"
            },
            {
              "name": "Connection",
              "value": "keep-alive"
            },
            {
              "name": "Cookie",
              "value": "cookieconsent_status=dismiss; JSESSIONID=node0rl1cfz09fj3pxum97o106br95.node0; screenResolution=1920x1080"
            },
            {
              "name": "Pragma",
              "value": "no-cache"
            },
            {
              "name": "Cache-Control",
              "value": "no-cache"
            }
          ],
          "cookies": [
            {
              "name": "cookieconsent_status",
              "value": "dismiss"
            },
            {
              "name": "JSESSIONID",
              "value": "node0rl1cfz09fj3pxum97o106br95.node0"
            },
            {
              "name": "screenResolution",
              "value": "1920x1080"
            }
          ],
          "queryString": [],
          "headersSize": 779
        },
        "response": {
          "status": 200,
          "statusText": "OK",
          "httpVersion": "HTTP/1.1",
          "headers": [
            {
              "name": "Date",
              "value": "Tue, 17 Nov 2020 23:46:48 GMT"
            },
            {
              "name": "X-Content-Type-Options",
              "value": "nosniff"
            },
            {
              "name": "Content-Type",
              "value": "text/html;charset=utf-8"
            },
            {
              "name": "n",
              "value": "9"
            },
            {
              "name": "Cache-Control",
              "value": "no-cache,no-store,must-revalidate"
            },
            {
              "name": "Content-Encoding",
              "value": "gzip"
            },
            {
              "name": "Content-Length",
              "value": "701"
            },
            {
              "name": "Server",
              "value": "Jetty(9.4.9.v20180320)"
            }
          ],
          "cookies": [],
          "content": {
            "mimeType": "text/html; charset=utf-8",
            "size": 1643,
            "text": "<table page-has-up=\"false\" page-has-down=\"false\" page-entry-newest=\"-9223372036854775799\" page-entry-oldest=\"-9223372036854775799\" class=\"pane hasPageData\"><tr page-entry-id=\"-9223372036854775799\" class=\"build-row transitive single-line\"><td class=\"build-row-cell\"><div class=\"pane build-name\"><div class=\"build-icon\"><a href=\"/job/B/9/console\" class=\"build-status-link\"><img src=\"/static/3082ce0d/images/16x16/blue_anime.gif\" alt=\"In progress &gt; Console Output\" tooltip=\"In progress &gt; Console Output\" style=\"width: 16px; height: 16px; \" class=\"icon-blue-anime icon-sm\" /></a></div><a update-parent-class=\".build-row\" href=\"/job/B/9/\" class=\"tip model-link inside build-link display-name\">#9</a></div><div time=\"1605656801857\" class=\"pane build-details\"><a update-parent-class=\".build-row\" href=\"/job/B/9/\" class=\"tip model-link inside build-link\">Nov 18, 2020 12:46 PM</a><table tooltip=\"Started 6.5 sec ago&lt;br&gt; Estimated remaining time: 12 sec\" style=\"cursor:pointer\" href=\"/job/B/9/console\" class=\"progress-bar \"><tbody><tr><td style=\"width:34%;\" class=\"progress-bar-done\"></td><td style=\"width:66%\" class=\"progress-bar-left\"></td></tr></tbody></table></div><div class=\"pane build-controls\"><div class=\"middle-align build-badge\"></div><div class=\"build-stop\"><a onclick=\"if(confirm(&quot;Are you sure you want to abort B #9?&quot;))new Ajax.Request(&quot;/job/B/9/stop&quot;); return false;\" href=\"/job/B/9/stop\" class=\"stop-button-link\"><img src=\"/static/3082ce0d/images/16x16/stop.png\" alt=\"[cancel]\" style=\"width: 16px; height: 16px; \" class=\"icon-stop icon-sm\" /></a></div></div><div class=\"left-bar\"></div></td></tr></table>"
          },
          "redirectURL": "",
          "headersSize": 261,
          "bodySize": 962
        },
        "cache": {},
        "timings": {
          "blocked": 0,
          "dns": 0,
          "connect": 0,
          "ssl": 0,
          "send": 0,
          "wait": 4,
          "receive": 0
        },
        "time": 4,
        "_securityState": "insecure",
        "serverIPAddress": "::1",
        "connection": "8080"
      }
    ]
  }
}