{
  "log": {
    "version": "1.2",
    "creator": {
      "name": "Firefox",
      "version": "78.0.2"
    },
    "browser": {
      "name": "Firefox",
      "version": "78.0.2"
    },
    "pages": [
      {
        "startedDateTime": "2020-11-27T17:58:02.439+13:00",
        "id": "page_1",
        "title": "Add On Manager",
        "pageTimings": {
          "onContentLoad": -1,
          "onLoad": -1
        }
      }
    ],
    "entries": [
      {
        "pageref": "page_1",
        "startedDateTime": "2020-11-27T17:58:02.439+13:00",
        "request": {
          "bodySize": 0,
          "method": "GET",
          "url": "http://localhost:8080/openmrs_2.3.2/ws/rest/v1/session",
          "httpVersion": "HTTP/1.1",
          "headers": [
            {
              "name": "Host",
              "value": "localhost:8080"
            },
            {
              "name": "User-Agent",
              "value": "Mozilla/5.0 (Windows NT 10.0; Win64; x64; rv:78.0) Gecko/20100101 Firefox/78.0"
            },
            {
              "name": "Accept",
              "value": "application/json, text/plain, */*"
            },
            {
              "name": "Accept-Language",
              "value": "en-US,en;q=0.5"
            },
            {
              "name": "Accept-Encoding",
              "value": "gzip, deflate"
            },
            {
              "name": "Authorization",
              "value": "Basic YWRtaW46QWRtaW4xMjM="
            },
            {
              "name": "DNT",
              "value": "1"
            },
            {
              "name": "Connection",
              "value": "keep-alive"
            },
            {
              "name": "Referer",
              "value": "http://localhost:8080/openmrs_2.3.2/owa/addonmanager/index.html"
            },
            {
              "name": "Cookie",
              "value": "JSESSIONID=E5A0A7C9BA8797B41516DF6A7463D745; cookieconsent_status=dismiss; JSESSIONID=node0klk4an8xm8f01peuew2v2tx9v7.node0; screenResolution=1920x1080"
            },
            {
              "name": "Pragma",
              "value": "no-cache"
            },
            {
              "name": "Cache-Control",
              "value": "no-cache"
            }
          ],
          "cookies": [],
          "queryString": [],
          "headersSize": 625
        },        
          "status": 200,
          "statusText": "",
          "httpVersion": "HTTP/1.1",
          "headers": [
            {
              "name": "ETag",
              "value": "\"05a2a819fd129078b69fc5a46abe6eb48\""
            },
            {
              "name": "Content-Type",
              "value": "application/json;charset=UTF-8"
            },
            {
              "name": "Content-Length",
              "value": "6127"
            },
            {
              "name": "Date",
              "value": "Fri, 27 Nov 2020 04:58:02 GMT"
            },
            {
              "name": "Keep-Alive",
              "value": "timeout=20"
            },
            {
              "name": "Connection",
              "value": "keep-alive"
            }
          ],
          "cookies": [],
          "content": {
            "mimeType": "application/json; charset=UTF-8",
            "size": 6127,
            "text": "{\"sessionId\":\"E5A0A7C9BA8797B41516DF6A7463D745\",\"authenticated\":true,\"user\":{\"uuid\":\"55338a61-3068-11eb-873d-b4b686e3a558\",\"display\":\"admin\",\"username\":\"admin\",\"systemId\":\"admin\",\"userProperties\":{\"loginAttempts\":\"0\"},\"person\":{\"uuid\":\"dc99b8b2-3067-11eb-873d-b4b686e3a558\",\"display\":\"Super User\",\"links\":[{\"rel\":\"self\",\"uri\":\"http://localhost:8080/openmrs_2.3.2http://localhost:8080/openmrs_2.3.2/ws/rest/v1/person/dc99b8b2-3067-11eb-873d-b4b686e3a558\"}]},\"privileges\":[{\"uuid\":\"d05118c6-2490-4d78-a41a-390e3596a248\",\"display\":\"Get Encounters\",\"links\":[{\"rel\":\"self\",\"uri\":\"http://localhost:8080/openmrs_2.3.2http://localhost:8080/openmrs_2.3.2/ws/rest/v1/privilege/d05118c6-2490-4d78-a41a-390e3596a248\"}]},{\"uuid\":\"d05118c6-2490-4d78-a41a-390e3596a224\",\"display\":\"Get People\",\"links\":[{\"rel\":\"self\",\"uri\":\"http://localhost:8080/openmrs_2.3.2http://localhost:8080/openmrs_2.3.2/ws/rest/v1/privilege/d05118c6-2490-4d78-a41a-390e3596a224\"}]},{\"uuid\":\"dd918b96-3067-11eb-873d-b4b686e3a558\",\"display\":\"View Observations\",\"links\":[{\"rel\":\"self\",\"uri\":\"http://localhost:8080/openmrs_2.3.2http://localhost:8080/openmrs_2.3.2/ws/rest/v1/privilege/dd918b96-3067-11eb-873d-b4b686e3a558\"}]},{\"uuid\":\"d05118c6-2490-4d78-a41a-390e3596a214\",\"display\":\"Get Visits\",\"links\":[{\"rel\":\"self\",\"uri\":\"http://localhost:8080/openmrs_2.3.2http://localhost:8080/openmrs_2.3.2/ws/rest/v1/privilege/d05118c6-2490-4d78-a41a-390e3596a214\"}]},{\"uuid\":\"d05118c6-2490-4d78-a41a-390e3596a244\",\"display\":\"Get Patients\",\"links\":[{\"rel\":\"self\",\"uri\":\"http://localhost:8080/openmrs_2.3.2http://localhost:8080/openmrs_2.3.2/ws/rest/v1/privilege/d05118c6-2490-4d78-a41a-390e3596a244\"}]},{\"uuid\":\"d05118c6-2490-4d78-a41a-390e3596a211\",\"display\":\"Get Providers\",\"links\":[{\"rel\":\"self\",\"uri\":\"http://localhost:8080/openmrs_2.3.2http://localhost:8080/openmrs_2.3.2/ws/rest/v1/privilege/d05118c6-2490-4d78-a41a-390e3596a211\"}]},{\"uuid\":\"dd918000-3067-11eb-873d-b4b686e3a558\",\"display\":\"View Allergies\",\"links\":[{\"rel\":\"self\",\"uri\":\"http://localhost:8080/openmrs_2.3.2http://localhost:8080/openmrs_2.3.2/ws/rest/v1/privilege/dd918000-3067-11eb-873d-b4b686e3a558\"}]},{\"uuid\":\"d05118c6-2490-4d78-a41a-390e3596a245\",\"display\":\"Get Observations\",\"links\":[{\"rel\":\"self\",\"uri\":\"http://localhost:8080/openmrs_2.3.2http://localhost:8080/openmrs_2.3.2/ws/rest/v1/privilege/d05118c6-2490-4d78-a41a-390e3596a245\"}]},{\"uuid\":\"dd9184e3-3067-11eb-873d-b4b686e3a558\",\"display\":\"View Concepts\",\"links\":[{\"rel\":\"self\",\"uri\":\"http://localhost:8080/openmrs_2.3.2http://localhost:8080/openmrs_2.3.2/ws/rest/v1/privilege/dd9184e3-3067-11eb-873d-b4b686e3a558\"}]},{\"uuid\":\"d05118c6-2490-4d78-a41a-390e3596a220\",\"display\":\"Get Allergies\",\"links\":[{\"rel\":\"self\",\"uri\":\"http://localhost:8080/openmrs_2.3.2http://localhost:8080/openmrs_2.3.2/ws/rest/v1/privilege/d05118c6-2490-4d78-a41a-390e3596a220\"}]},{\"uuid\":\"d05118c6-2490-4d78-a41a-390e3596a243\",\"display\":\"Get Patient Identifiers\",\"links\":[{\"rel\":\"self\",\"uri\":\"http://localhost:8080/openmrs_2.3.2http://localhost:8080/openmrs_2.3.2/ws/rest/v1/privilege/d05118c6-2490-4d78-a41a-390e3596a243\"}]},{\"uuid\":\"d05118c6-2490-4d78-a41a-390e3596a221\",\"display\":\"Get Problems\",\"links\":[{\"rel\":\"self\",\"uri\":\"http://localhost:8080/openmrs_2.3.2http://localhost:8080/openmrs_2.3.2/ws/rest/v1/privilege/d05118c6-2490-4d78-a41a-390e3596a221\"}]},{\"uuid\":\"dd9186f0-3067-11eb-873d-b4b686e3a558\",\"display\":\"View Encounters\",\"links\":[{\"rel\":\"self\",\"uri\":\"http://localhost:8080/openmrs_2.3.2http://localhost:8080/openmrs_2.3.2/ws/rest/v1/privilege/dd9186f0-3067-11eb-873d-b4b686e3a558\"}]},{\"uuid\":\"dd918e4c-3067-11eb-873d-b4b686e3a558\",\"display\":\"View Patient Identifiers\",\"links\":[{\"rel\":\"self\",\"uri\":\"http://localhost:8080/openmrs_2.3.2http://localhost:8080/openmrs_2.3.2/ws/rest/v1/privilege/dd918e4c-3067-11eb-873d-b4b686e3a558\"}]},{\"uuid\":\"dd9190cf-3067-11eb-873d-b4b686e3a558\",\"display\":\"View People\",\"links\":[{\"rel\":\"self\",\"uri\":\"http://localhost:8080/openmrs_2.3.2http://localhost:8080/openmrs_2.3.2/ws/rest/v1/privilege/dd9190cf-3067-11eb-873d-b4b686e3a558\"}]},{\"uuid\":\"d05118c6-2490-4d78-a41a-390e3596a251\",\"display\":\"Get Concepts\",\"links\":[{\"rel\":\"self\",\"uri\":\"http://localhost:8080/openmrs_2.3.2http://localhost:8080/openmrs_2.3.2/ws/rest/v1/privilege/d05118c6-2490-4d78-a41a-390e3596a251\"}]},{\"uuid\":\"dd918fcd-3067-11eb-873d-b4b686e3a558\",\"display\":\"View Patients\",\"links\":[{\"rel\":\"self\",\"uri\":\"http://localhost:8080/openmrs_2.3.2http://localhost:8080/openmrs_2.3.2/ws/rest/v1/privilege/dd918fcd-3067-11eb-873d-b4b686e3a558\"}]},{\"uuid\":\"d05118c6-2490-4d78-a41a-390e3596a260\",\"display\":\"Patient Overview - View Problem List\",\"links\":[{\"rel\":\"self\",\"uri\":\"http://localhost:8080/openmrs_2.3.2http://localhost:8080/openmrs_2.3.2/ws/rest/v1/privilege/d05118c6-2490-4d78-a41a-390e3596a260\"}]},{\"uuid\":\"d05118c6-2490-4d78-a41a-390e3596a261\",\"display\":\"Patient Overview - View Allergies\",\"links\":[{\"rel\":\"self\",\"uri\":\"http://localhost:8080/openmrs_2.3.2http://localhost:8080/openmrs_2.3.2/ws/rest/v1/privilege/d05118c6-2490-4d78-a41a-390e3596a261\"}]},{\"uuid\":\"dd9193e3-3067-11eb-873d-b4b686e3a558\",\"display\":\"View Problems\",\"links\":[{\"rel\":\"self\",\"uri\":\"http://localhost:8080/openmrs_2.3.2http://localhost:8080/openmrs_2.3.2/ws/rest/v1/privilege/dd9193e3-3067-11eb-873d-b4b686e3a558\"}]}],\"roles\":[{\"uuid\":\"8d94f852-c2cc-11de-8d13-0010c6dffd0f\",\"display\":\"System Developer\",\"links\":[{\"rel\":\"self\",\"uri\":\"http://localhost:8080/openmrs_2.3.2http://localhost:8080/openmrs_2.3.2/ws/rest/v1/role/8d94f852-c2cc-11de-8d13-0010c6dffd0f\"}]},{\"uuid\":\"8d94f280-c2cc-11de-8d13-0010c6dffd0f\",\"display\":\"Provider\",\"links\":[{\"rel\":\"self\",\"uri\":\"http://localhost:8080/openmrs_2.3.2http://localhost:8080/openmrs_2.3.2/ws/rest/v1/role/8d94f280-c2cc-11de-8d13-0010c6dffd0f\"}]}],\"retired\":false,\"links\":[{\"rel\":\"self\",\"uri\":\"http://localhost:8080/openmrs_2.3.2http://localhost:8080/openmrs_2.3.2/ws/rest/v1/user/55338a61-3068-11eb-873d-b4b686e3a558\"},{\"rel\":\"full\",\"uri\":\"http://localhost:8080/openmrs_2.3.2http://localhost:8080/openmrs_2.3.2/ws/rest/v1/user/55338a61-3068-11eb-873d-b4b686e3a558?v=full\"}],\"resourceVersion\":\"1.8\"},\"locale\":\"en_GB\",\"allowedLocales\":[\"en\",\"en_GB\"]}"
          },
          "redirectURL": "",
          "headersSize": 213,
          "bodySize": 6340
        },
        "cache": {},
        "timings": {
          "blocked": 1,
          "dns": 1,
          "connect": 1,
          "ssl": 0,
          "send": 0,
          "wait": 39,
          "receive": 1
        },
        "time": 43,
        "_securityState": "insecure",
        "serverIPAddress": "::1",
        "connection": "8080"
      }
        "pageref": "page_1",
        "startedDateTime": "2020-11-27T17:58:03.026+13:00",
        "request": {
          "bodySize": 0,
          "method": "GET",
          "url": "https://addons.openmrs.org/api/v1/addon?modulePackage=org.openmrs.module.webservices.rest",
          "httpVersion": "HTTP/1.1",
          "headers": [
            {
              "name": "Host",
              "value": "addons.openmrs.org"
            },
            {
              "name": "User-Agent",
              "value": "Mozilla/5.0 (Windows NT 10.0; Win64; x64; rv:78.0) Gecko/20100101 Firefox/78.0"
            },
            {
              "name": "Accept",
              "value": "application/json, text/plain, */*"
            },
            {
              "name": "Accept-Language",
              "value": "en-US,en;q=0.5"
            },
            {
              "name": "Accept-Encoding",
              "value": "gzip, deflate, br"
            },
            {
              "name": "Origin",
              "value": "http://localhost:8080"
            },
            {
              "name": "DNT",
              "value": "1"
            },
            {
              "name": "Connection",
              "value": "keep-alive"
            },
            {
              "name": "Referer",
              "value": "http://localhost:8080/openmrs_2.3.2/owa/addonmanager/index.html"
            },
            {
              "name": "Pragma",
              "value": "no-cache"
            },
            {
              "name": "Cache-Control",
              "value": "no-cache"
            }
          ],
          "cookies": [],
          "queryString": [
            {
              "name": "modulePackage",
              "value": "org.openmrs.module.webservices.rest"
            }
          ],
          "headersSize": 490
        },
        "response": {
          "status": 200,
          "statusText": "",
          "httpVersion": "HTTP/1.1",
          "headers": [
            {
              "name": "Server",
              "value": "nginx/1.10.3 (Ubuntu)"
            },
            {
              "name": "Date",
              "value": "Fri, 27 Nov 2020 04:58:03 GMT"
            },
            {
              "name": "Content-Type",
              "value": "application/json;charset=UTF-8"
            },
            {
              "name": "Transfer-Encoding",
              "value": "chunked"
            },
            {
              "name": "Connection",
              "value": "keep-alive"
            },
            {
              "name": "Access-Control-Allow-Origin",
              "value": "http://localhost:8080"
            },
            {
              "name": "Vary",
              "value": "Origin"
            },
            {
              "name": "Access-Control-Allow-Credentials",
              "value": "true"
            },
            {
              "name": "Strict-Transport-Security",
              "value": "max-age=15768000"
            }
          ],
          "cookies": [],
          "content": {
            "mimeType": "application/json; charset=UTF-8",
            "size": 12013,
            "text": "{\"uid\":\"org.openmrs.module.webservices-rest\",\"modulePackage\":\"org.openmrs.module.webservices.rest\",\"moduleId\":\"webservices.rest\",\"status\":null,\"type\":\"OMOD\",\"name\":\"Rest Web Services\",\"description\":\"Publishes Rest Web Services exposing the OpenMRS API\",\"icon\":\"server\",\"tags\":null,\"maintainers\":[{\"name\":\"Wyclif Luyima\",\"url\":null},{\"name\":\"djazayeri\",\"url\":null},{\"name\":\"Daniel Kayiwa\",\"url\":null},{\"name\":\"Darius Jazayeri\",\"url\":null},{\"name\":\"Rafal Korytkowski\",\"url\":null},{\"name\":\"bwolfe\",\"url\":null}],\"links\":[{\"rel\":\"documentation\",\"href\":\"https://github.com/openmrs/openmrs-module-webservices.rest/blob/master/README.md\",\"title\":\"GitHub ReadMe\"},{\"rel\":\"source\",\"href\":\"https://github.com/openmrs/openmrs-module-webservices.rest\",\"title\":null}],\"hostedUrl\":\"https://bintray.com/openmrs/omod/webservices.rest\",\"versions\":[{\"version\":\"2.29.0\",\"releaseDatetime\":\"2020-09-22T16:29:20.737Z\",\"downloadUri\":\"https://dl.bintray.com/openmrs/omod/webservices.rest-2.29.0.omod\",\"renameTo\":null,\"requireOpenmrsVersion\":\"1.9.10\",\"modulePackage\":\"org.openmrs.module.webservices.rest\",\"moduleId\":\"webservices.rest\",\"requireModules\":null,\"supportedLanguages\":[\"en\"]},{\"version\":\"2.28.0\",\"releaseDatetime\":\"2020-03-26T09:45:47.534Z\",\"downloadUri\":\"https://dl.bintray.com/openmrs/omod/webservices.rest-2.28.0.omod\",\"renameTo\":null,\"requireOpenmrsVersion\":\"1.9.10\",\"modulePackage\":\"org.openmrs.module.webservices.rest\",\"moduleId\":\"webservices.rest\",\"requireModules\":null,\"supportedLanguages\":[\"en\"]},{\"version\":\"2.27.0\",\"releaseDatetime\":\"2020-02-19T09:36:25.044Z\",\"downloadUri\":\"https://dl.bintray.com/openmrs/omod/webservices.rest-2.27.0.omod\",\"renameTo\":null,\"requireOpenmrsVersion\":\"1.9.10\",\"modulePackage\":\"org.openmrs.module.webservices.rest\",\"moduleId\":\"webservices.rest\",\"requireModules\":null,\"supportedLanguages\":[\"en\"]},{\"version\":\"2.26.0\",\"releaseDatetime\":\"2019-08-27T12:26:55.039Z\",\"downloadUri\":\"https://dl.bintray.com/openmrs/omod/webservices.rest-2.26.0.omod\",\"renameTo\":null,\"requireOpenmrsVersion\":\"1.9.10\",\"modulePackage\":\"org.openmrs.module.webservices.rest\",\"moduleId\":\"webservices.rest\",\"requireModules\":null,\"supportedLanguages\":[\"en\"]},{\"version\":\"2.25.0\",\"releaseDatetime\":\"2019-06-18T13:18:09.864Z\",\"downloadUri\":\"https://dl.bintray.com/openmrs/omod/webservices.rest-2.25.0.omod\",\"renameTo\":null,\"requireOpenmrsVersion\":\"1.9.10\",\"modulePackage\":\"org.openmrs.module.webservices.rest\",\"moduleId\":\"webservices.rest\",\"requireModules\":null,\"supportedLanguages\":[\"en\"]},{\"version\":\"2.24.0\",\"releaseDatetime\":\"2019-01-10T15:21:39.739Z\",\"downloadUri\":\"https://dl.bintray.com/openmrs/omod/webservices.rest-2.24.0.omod\",\"renameTo\":null,\"requireOpenmrsVersion\":\"1.9.10\",\"modulePackage\":\"org.openmrs.module.webservices.rest\",\"moduleId\":\"webservices.rest\",\"requireModules\":null,\"supportedLanguages\":[\"en\"]},{\"version\":\"2.23.0\",\"releaseDatetime\":\"2018-12-12T09:39:28.794Z\",\"downloadUri\":\"https://dl.bintray.com/openmrs/omod/webservices.rest-2.23.0.omod\",\"renameTo\":null,\"requireOpenmrsVersion\":\"1.9.10\",\"modulePackage\":\"org.openmrs.module.webservices.rest\",\"moduleId\":\"webservices.rest\",\"requireModules\":null,\"supportedLanguages\":[\"en\"]},{\"version\":\"2.22.0\",\"releaseDatetime\":\"2018-02-06T16:10:29.785Z\",\"downloadUri\":\"https://dl.bintray.com/openmrs/omod/webservices.rest-2.22.0.omod\",\"renameTo\":null,\"requireOpenmrsVersion\":\"1.9.10\",\"modulePackage\":\"org.openmrs.module.webservices.rest\",\"moduleId\":\"webservices.rest\",\"requireModules\":null,\"supportedLanguages\":[\"en\"]},{\"version\":\"2.21.0\",\"releaseDatetime\":\"2017-10-24T15:03:39.873Z\",\"downloadUri\":\"https://dl.bintray.com/openmrs/omod/webservices.rest-2.21.0.omod\",\"renameTo\":null,\"requireOpenmrsVersion\":\"1.9.10\",\"modulePackage\":\"org.openmrs.module.webservices.rest\",\"moduleId\":\"webservices.rest\",\"requireModules\":null,\"supportedLanguages\":[\"en\"]},{\"version\":\"2.20.0\",\"releaseDatetime\":\"2017-07-28T18:04:32.456Z\",\"downloadUri\":\"https://dl.bintray.com/openmrs/omod/webservices.rest-2.20.0.omod\",\"renameTo\":null,\"requireOpenmrsVersion\":\"1.9.10\",\"modulePackage\":\"org.openmrs.module.webservices.rest\",\"moduleId\":\"webservices.rest\",\"requireModules\":null,\"supportedLanguages\":[\"en\"]},{\"version\":\"2.19.0\",\"releaseDatetime\":\"2017-04-14T18:35:59.093Z\",\"downloadUri\":\"https://dl.bintray.com/openmrs/omod/webservices.rest-2.19.0.omod\",\"renameTo\":null,\"requireOpenmrsVersion\":\"1.9.10\",\"modulePackage\":\"org.openmrs.module.webservices.rest\",\"moduleId\":\"webservices.rest\",\"requireModules\":null,\"supportedLanguages\":[\"en\"]},{\"version\":\"2.18.0\",\"releaseDatetime\":\"2017-04-04T10:12:37.687Z\",\"downloadUri\":\"https://dl.bintray.com/openmrs/omod/webservices.rest-2.18.0.omod\",\"renameTo\":null,\"requireOpenmrsVersion\":\"1.9.10\",\"modulePackage\":\"org.openmrs.module.webservices.rest\",\"moduleId\":\"webservices.rest\",\"requireModules\":null,\"supportedLanguages\":[\"en\"]},{\"version\":\"2.17\",\"releaseDatetime\":\"2017-02-21T13:36:51.891Z\",\"downloadUri\":\"https://dl.bintray.com/openmrs/omod/webservices.rest-2.17.omod\",\"renameTo\":null,\"requireOpenmrsVersion\":\"1.9.10\",\"modulePackage\":\"org.openmrs.module.webservices.rest\",\"moduleId\":\"webservices.rest\",\"requireModules\":null,\"supportedLanguages\":[\"en\"]},{\"version\":\"2.16\",\"releaseDatetime\":\"2017-04-04T10:26:55.722Z\",\"downloadUri\":\"https://dl.bintray.com/openmrs/omod/webservices.rest-2.16.omod\",\"renameTo\":null,\"requireOpenmrsVersion\":\"1.9.10\",\"modulePackage\":\"org.openmrs.module.webservices.rest\",\"moduleId\":\"webservices.rest\",\"requireModules\":null,\"supportedLanguages\":[\"en\"]},{\"version\":\"2.15\",\"releaseDatetime\":\"2017-02-21T13:32:34.661Z\",\"downloadUri\":\"https://dl.bintray.com/openmrs/omod/webservices.rest-2.15.omod\",\"renameTo\":null,\"requireOpenmrsVersion\":\"1.9.10\",\"modulePackage\":\"org.openmrs.module.webservices.rest\",\"moduleId\":\"webservices.rest\",\"requireModules\":null,\"supportedLanguages\":[\"en\"]},{\"version\":\"2.14\",\"releaseDatetime\":\"2017-02-21T13:55:11.737Z\",\"downloadUri\":\"https://dl.bintray.com/openmrs/omod/webservices.rest-2.14.omod\",\"renameTo\":null,\"requireOpenmrsVersion\":\"1.9.10\",\"modulePackage\":\"org.openmrs.module.webservices.rest\",\"moduleId\":\"webservices.rest\",\"requireModules\":null,\"supportedLanguages\":[\"en\"]},{\"version\":\"2.13\",\"releaseDatetime\":\"2017-02-21T13:52:12.131Z\",\"downloadUri\":\"https://dl.bintray.com/openmrs/omod/webservices.rest-2.13.omod\",\"renameTo\":null,\"requireOpenmrsVersion\":\"1.8.4\",\"modulePackage\":\"org.openmrs.module.webservices.rest\",\"moduleId\":\"webservices.rest\",\"requireModules\":null,\"supportedLanguages\":[\"en\"]},{\"version\":\"2.12\",\"releaseDatetime\":\"2017-02-21T14:20:09.535Z\",\"downloadUri\":\"https://dl.bintray.com/openmrs/omod/webservices.rest-2.12.omod\",\"renameTo\":null,\"requireOpenmrsVersion\":\"1.8.4\",\"modulePackage\":\"org.openmrs.module.webservices.rest\",\"moduleId\":\"webservices.rest\",\"requireModules\":null,\"supportedLanguages\":[\"en\"]},{\"version\":\"2.11\",\"releaseDatetime\":\"2017-02-21T13:48:04.375Z\",\"downloadUri\":\"https://dl.bintray.com/openmrs/omod/webservices.rest-2.11.omod\",\"renameTo\":null,\"requireOpenmrsVersion\":\"1.8.1\",\"modulePackage\":\"org.openmrs.module.webservices.rest\",\"moduleId\":\"webservices.rest\",\"requireModules\":null,\"supportedLanguages\":[\"en\"]},{\"version\":\"2.10\",\"releaseDatetime\":\"2017-02-21T14:13:55.076Z\",\"downloadUri\":\"https://dl.bintray.com/openmrs/omod/webservices.rest-2.10.omod\",\"renameTo\":null,\"requireOpenmrsVersion\":\"1.8.1\",\"modulePackage\":\"org.openmrs.module.webservices.rest\",\"moduleId\":\"webservices.rest\",\"requireModules\":null,\"supportedLanguages\":[\"en\"]},{\"version\":\"2.9\",\"releaseDatetime\":\"2017-02-21T14:12:30.399Z\",\"downloadUri\":\"https://dl.bintray.com/openmrs/omod/webservices.rest-2.9.omod\",\"renameTo\":null,\"requireOpenmrsVersion\":\"1.8.1\",\"modulePackage\":\"org.openmrs.module.webservices.rest\",\"moduleId\":\"webservices.rest\",\"requireModules\":null,\"supportedLanguages\":[\"en\"]},{\"version\":\"2.8\",\"releaseDatetime\":\"2017-02-21T13:44:16.131Z\",\"downloadUri\":\"https://dl.bintray.com/openmrs/omod/webservices.rest-2.8.omod\",\"renameTo\":null,\"requireOpenmrsVersion\":\"1.8.1\",\"modulePackage\":\"org.openmrs.module.webservices.rest\",\"moduleId\":\"webservices.rest\",\"requireModules\":null,\"supportedLanguages\":[\"en\"]},{\"version\":\"2.7\",\"releaseDatetime\":\"2017-02-21T14:19:05.627Z\",\"downloadUri\":\"https://dl.bintray.com/openmrs/omod/webservices.rest-2.7.omod\",\"renameTo\":null,\"requireOpenmrsVersion\":\"1.8.1\",\"modulePackage\":\"org.openmrs.module.webservices.rest\",\"moduleId\":\"webservices.rest\",\"requireModules\":null,\"supportedLanguages\":[\"en\"]},{\"version\":\"2.6\",\"releaseDatetime\":\"2017-02-21T13:49:55.81Z\",\"downloadUri\":\"https://dl.bintray.com/openmrs/omod/webservices.rest-2.6.omod\",\"renameTo\":null,\"requireOpenmrsVersion\":\"1.8.1\",\"modulePackage\":\"org.openmrs.module.webservices.rest\",\"moduleId\":\"webservices.rest\",\"requireModules\":null,\"supportedLanguages\":[\"en\"]},{\"version\":\"2.5\",\"releaseDatetime\":\"2017-02-21T13:28:28.447Z\",\"downloadUri\":\"https://dl.bintray.com/openmrs/omod/webservices.rest-2.5.omod\",\"renameTo\":null,\"requireOpenmrsVersion\":\"1.8.1\",\"modulePackage\":\"org.openmrs.module.webservices.rest\",\"moduleId\":\"webservices.rest\",\"requireModules\":null,\"supportedLanguages\":[\"en\"]},{\"version\":\"2.4\",\"releaseDatetime\":\"2017-02-21T13:55:01.205Z\",\"downloadUri\":\"https://dl.bintray.com/openmrs/omod/webservices.rest-2.4.omod\",\"renameTo\":null,\"requireOpenmrsVersion\":\"1.8.1\",\"modulePackage\":\"org.openmrs.module.webservices.rest\",\"moduleId\":\"webservices.rest\",\"requireModules\":null,\"supportedLanguages\":[\"en\"]},{\"version\":\"2.3\",\"releaseDatetime\":\"2017-02-21T13:33:45.462Z\",\"downloadUri\":\"https://dl.bintray.com/openmrs/omod/webservices.rest-2.3.omod\",\"renameTo\":null,\"requireOpenmrsVersion\":\"1.8.1\",\"modulePackage\":\"org.openmrs.module.webservices.rest\",\"moduleId\":\"webservices.rest\",\"requireModules\":null,\"supportedLanguages\":[\"en\"]},{\"version\":\"2.2.omrs13demo\",\"releaseDatetime\":\"2017-02-21T13:34:04.675Z\",\"downloadUri\":\"https://dl.bintray.com/openmrs/omod/webservices.rest-2.2.omrs13demo.omod\",\"renameTo\":null,\"requireOpenmrsVersion\":\"1.8.1\",\"modulePackage\":\"org.openmrs.module.webservices.rest\",\"moduleId\":\"webservices.rest\",\"requireModules\":null,\"supportedLanguages\":[\"en\"]},{\"version\":\"2.2\",\"releaseDatetime\":\"2017-02-21T13:59:44.364Z\",\"downloadUri\":\"https://dl.bintray.com/openmrs/omod/webservices.rest-2.2.omod\",\"renameTo\":null,\"requireOpenmrsVersion\":\"1.8.1\",\"modulePackage\":\"org.openmrs.module.webservices.rest\",\"moduleId\":\"webservices.rest\",\"requireModules\":null,\"supportedLanguages\":[\"en\"]},{\"version\":\"2.1\",\"releaseDatetime\":\"2017-02-21T13:37:53.844Z\",\"downloadUri\":\"https://dl.bintray.com/openmrs/omod/webservices.rest-2.1.omod\",\"renameTo\":null,\"requireOpenmrsVersion\":\"1.8.1\",\"modulePackage\":\"org.openmrs.module.webservices.rest\",\"moduleId\":\"webservices.rest\",\"requireModules\":null,\"supportedLanguages\":[\"en\"]},{\"version\":\"2.0\",\"releaseDatetime\":\"2017-02-21T14:07:07.688Z\",\"downloadUri\":\"https://dl.bintray.com/openmrs/omod/webservices.rest-2.0.omod\",\"renameTo\":null,\"requireOpenmrsVersion\":\"1.8.1\",\"modulePackage\":\"org.openmrs.module.webservices.rest\",\"moduleId\":\"webservices.rest\",\"requireModules\":null,\"supportedLanguages\":[\"en\"]},{\"version\":\"1.1\",\"releaseDatetime\":\"2017-02-21T13:50:59.184Z\",\"downloadUri\":\"https://dl.bintray.com/openmrs/omod/webservices.rest-1.1.omod\",\"renameTo\":null,\"requireOpenmrsVersion\":\"1.8.1\",\"modulePackage\":\"org.openmrs.module.webservices.rest\",\"moduleId\":\"webservices.rest\",\"requireModules\":null,\"supportedLanguages\":[\"en\"]},{\"version\":\"1.0\",\"releaseDatetime\":\"2017-02-21T14:19:02.713Z\",\"downloadUri\":\"https://dl.bintray.com/openmrs/omod/webservices.rest-1.0.omod\",\"renameTo\":null,\"requireOpenmrsVersion\":\"1.8.1\",\"modulePackage\":\"org.openmrs.module.webservices.rest\",\"moduleId\":\"webservices.rest\",\"requireModules\":null,\"supportedLanguages\":[\"en\"]},{\"version\":\"0.9\",\"releaseDatetime\":\"2017-02-21T13:55:39.817Z\",\"downloadUri\":\"https://dl.bintray.com/openmrs/omod/webservices.rest-0.9.omod\",\"renameTo\":null,\"requireOpenmrsVersion\":\"1.8.1\",\"modulePackage\":\"org.openmrs.module.webservices.rest\",\"moduleId\":\"webservices.rest\",\"requireModules\":null,\"supportedLanguages\":[\"en\"]}],\"downloadCountInLast30Days\":117,\"latestVersion\":\"2.29.0\",\"versionCount\":34}"
          },
          "redirectURL": "",
          "headersSize": 334,
          "bodySize": 12347
        },
        "cache": {},
        "timings": {
          "blocked": 0,
          "dns": 102,
          "connect": 247,
          "ssl": 253,
          "send": 0,
          "wait": 266,
          "receive": 0
        },
        "time": 868,
        "_securityState": "secure",
        "serverIPAddress": "149.165.169.14",
        "connection": "443"
      }
    ]
  }
}