{
  "log": {
    "version": "1.2",
    "creator": {
      "name": "Firefox",
      "version": "78.0.2"
    },
    "browser": {
      "name": "Firefox",
      "version": "78.0.2"
    },
    "pages": [
      {
        "startedDateTime": "2020-11-24T18:05:20.316+13:00",
        "id": "page_3",
        "title": "Add On Manager",
        "pageTimings": {
          "onContentLoad": -1,
          "onLoad": -1
        }
      }
    ],
    "entries": [
      {
        "pageref": "page_3",
        "startedDateTime": "2020-11-24T18:05:41.785+13:00",
        "request": {
          "bodySize": 112,
          "method": "POST",
          "url": "http://localhost:8080/openmrs_2.3.2/ws/rest/v1/moduleaction",
          "httpVersion": "HTTP/1.1",
          "headers": [
            {
              "name": "Host",
              "value": "localhost:8080"
            },
            {
              "name": "User-Agent",
              "value": "Mozilla/5.0 (Windows NT 10.0; Win64; x64; rv:78.0) Gecko/20100101 Firefox/78.0"
            },
            {
              "name": "Accept",
              "value": "application/json, text/plain, */*"
            },
            {
              "name": "Accept-Language",
              "value": "en-US,en;q=0.5"
            },
            {
              "name": "Accept-Encoding",
              "value": "gzip, deflate"
            },
            {
              "name": "Content-Type",
              "value": "application/json;charset=utf-8"
            },
            {
              "name": "Content-Length",
              "value": "112"
            },
            {
              "name": "Origin",
              "value": "http://localhost:8080"
            },
            {
              "name": "DNT",
              "value": "1"
            },
            {
              "name": "Connection",
              "value": "keep-alive"
            },
            {
              "name": "Referer",
              "value": "http://localhost:8080/openmrs_2.3.2/owa/addonmanager/index.html"
            },
            {
              "name": "Cookie",
              "value": "JSESSIONID=E5A0A7C9BA8797B41516DF6A7463D745; cookieconsent_status=dismiss; JSESSIONID=node0klk4an8xm8f01peuew2v2tx9v7.node0; screenResolution=1920x1080"
            },
            {
              "name": "Pragma",
              "value": "no-cache"
            },
            {
              "name": "Cache-Control",
              "value": "no-cache"
            }
          ],
          "cookies": [
            {
              "name": "JSESSIONID",
              "value": "E5A0A7C9BA8797B41516DF6A7463D745"
            },
            {
              "name": "cookieconsent_status",
              "value": "dismiss"
            },
            {
              "name": "JSESSIONID",
              "value": "node0klk4an8xm8f01peuew2v2tx9v7.node0"
            },
            {
              "name": "screenResolution",
              "value": "1920x1080"
            }
          ],
          "queryString": [],
          "headersSize": 686,
          "postData": {
            "mimeType": "application/json;charset=utf-8",
            "params": [],
            "text": "{\"modules\":[\"adminui\"],\"action\":\"install\",\"installUri\":\"https://dl.bintray.com/openmrs/omod/adminui-1.4.0.omod\"}"
          }
        },
        "response": {
          "status": 201,
          "statusText": "",
          "httpVersion": "HTTP/1.1",
          "headers": [
            {
              "name": "Content-Type",
              "value": "application/json;charset=UTF-8"
            },
            {
              "name": "Content-Length",
              "value": "233"
            },
            {
              "name": "Date",
              "value": "Fri, 27 Nov 2020 05:05:44 GMT"
            },
            {
              "name": "Keep-Alive",
              "value": "timeout=20"
            },
            {
              "name": "Connection",
              "value": "keep-alive"
            }
          ],
          "cookies": [],
          "content": {
            "mimeType": "application/json; charset=UTF-8",
            "size": 233,
            "text": "{\"modules\":[{\"uuid\":\"adminui\",\"display\":\"Admin UI Module\",\"links\":[{\"rel\":\"self\",\"uri\":\"http://localhost:8080/openmrs_2.3.2http://localhost:8080/openmrs_2.3.2/ws/rest/v1/module/adminui\"}]}],\"action\":\"INSTALL\",\"resourceVersion\":\"1.8\"}"
          },
          "redirectURL": "",
          "headersSize": 169,
          "bodySize": 402
        },
        "cache": {},
        "timings": {
          "blocked": 1,
          "dns": 0,
          "connect": 0,
          "ssl": 0,
          "send": 0,
          "wait": 2959,
          "receive": 1
        },
        "time": 2961,
        "_securityState": "insecure",
        "serverIPAddress": "::1",
        "connection": "8080"
      },
      {
        "pageref": "page_3",
        "startedDateTime": "2020-11-24T18:05:59.795+13:00",
        "request": {
          "bodySize": 114,
          "method": "POST",
          "url": "http://localhost:8080/openmrs_2.3.2/ws/rest/v1/moduleaction",
          "httpVersion": "HTTP/1.1",
          "headers": [
            {
              "name": "Host",
              "value": "localhost:8080"
            },
            {
              "name": "User-Agent",
              "value": "Mozilla/5.0 (Windows NT 10.0; Win64; x64; rv:78.0) Gecko/20100101 Firefox/78.0"
            },
            {
              "name": "Accept",
              "value": "application/json, text/plain, */*"
            },
            {
              "name": "Accept-Language",
              "value": "en-US,en;q=0.5"
            },
            {
              "name": "Accept-Encoding",
              "value": "gzip, deflate"
            },
            {
              "name": "Content-Type",
              "value": "application/json;charset=utf-8"
            },
            {
              "name": "Content-Length",
              "value": "114"
            },
            {
              "name": "Origin",
              "value": "http://localhost:8080"
            },
            {
              "name": "DNT",
              "value": "1"
            },
            {
              "name": "Connection",
              "value": "keep-alive"
            },
            {
              "name": "Referer",
              "value": "http://localhost:8080/openmrs_2.3.2/owa/addonmanager/index.html"
            },
            {
              "name": "Cookie",
              "value": "JSESSIONID=E5A0A7C9BA8797B41516DF6A7463D745; cookieconsent_status=dismiss; JSESSIONID=node0klk4an8xm8f01peuew2v2tx9v7.node0; screenResolution=1920x1080"
            },
            {
              "name": "Pragma",
              "value": "no-cache"
            },
            {
              "name": "Cache-Control",
              "value": "no-cache"
            }
          ],
          "cookies": [
            {
              "name": "JSESSIONID",
              "value": "E5A0A7C9BA8797B41516DF6A7463D745"
            },
            {
              "name": "cookieconsent_status",
              "value": "dismiss"
            },
            {
              "name": "JSESSIONID",
              "value": "node0klk4an8xm8f01peuew2v2tx9v7.node0"
            },
            {
              "name": "screenResolution",
              "value": "1920x1080"
            }
          ],
          "queryString": [],
          "headersSize": 686,
          "postData": {
            "mimeType": "application/json;charset=utf-8",
            "params": [],
            "text": "{\"modules\":[\"legacyui\"],\"action\":\"install\",\"installUri\":\"https://dl.bintray.com/openmrs/omod/legacyui-1.8.0.omod\"}"
          }
        },
        "response": {
          "status": 201,
          "statusText": "",
          "httpVersion": "HTTP/1.1",
          "headers": [
            {
              "name": "Content-Type",
              "value": "application/json;charset=UTF-8"
            },
            {
              "name": "Content-Length",
              "value": "236"
            },
            {
              "name": "Date",
              "value": "Fri, 27 Nov 2020 05:06:33 GMT"
            },
            {
              "name": "Keep-Alive",
              "value": "timeout=20"
            },
            {
              "name": "Connection",
              "value": "keep-alive"
            }
          ],
          "cookies": [],
          "content": {
            "mimeType": "application/json; charset=UTF-8",
            "size": 236,
            "text": "{\"modules\":[{\"uuid\":\"legacyui\",\"display\":\"Legacy UI Module\",\"links\":[{\"rel\":\"self\",\"uri\":\"http://localhost:8080/openmrs_2.3.2http://localhost:8080/openmrs_2.3.2/ws/rest/v1/module/legacyui\"}]}],\"action\":\"INSTALL\",\"resourceVersion\":\"1.8\"}"
          },
          "redirectURL": "",
          "headersSize": 169,
          "bodySize": 405
        },
        "cache": {},
        "timings": {
          "blocked": 0,
          "dns": 0,
          "connect": 0,
          "ssl": 0,
          "send": 0,
          "wait": 33770,
          "receive": 0
        },
        "time": 33770,
        "_securityState": "insecure",
        "serverIPAddress": "::1",
        "connection": "8080"
      },
      {
        "pageref": "page_3",
        "startedDateTime": "2020-11-24T18:07:28.980+13:00",
        "request": {
          "bodySize": 117,
          "method": "POST",
          "url": "http://localhost:8080/openmrs_2.3.2/ws/rest/v1/moduleaction",
          "httpVersion": "HTTP/1.1",
          "headers": [
            {
              "name": "Host",
              "value": "localhost:8080"
            },
            {
              "name": "User-Agent",
              "value": "Mozilla/5.0 (Windows NT 10.0; Win64; x64; rv:78.0) Gecko/20100101 Firefox/78.0"
            },
            {
              "name": "Accept",
              "value": "application/json, text/plain, */*"
            },
            {
              "name": "Accept-Language",
              "value": "en-US,en;q=0.5"
            },
            {
              "name": "Accept-Encoding",
              "value": "gzip, deflate"
            },
            {
              "name": "Content-Type",
              "value": "application/json;charset=utf-8"
            },
            {
              "name": "Content-Length",
              "value": "117"
            },
            {
              "name": "Origin",
              "value": "http://localhost:8080"
            },
            {
              "name": "DNT",
              "value": "1"
            },
            {
              "name": "Connection",
              "value": "keep-alive"
            },
            {
              "name": "Referer",
              "value": "http://localhost:8080/openmrs_2.3.2/owa/addonmanager/index.html"
            },
            {
              "name": "Cookie",
              "value": "JSESSIONID=E5A0A7C9BA8797B41516DF6A7463D745; cookieconsent_status=dismiss; JSESSIONID=node0klk4an8xm8f01peuew2v2tx9v7.node0; screenResolution=1920x1080"
            },
            {
              "name": "Pragma",
              "value": "no-cache"
            },
            {
              "name": "Cache-Control",
              "value": "no-cache"
            }
          ],
          "cookies": [
            {
              "name": "JSESSIONID",
              "value": "E5A0A7C9BA8797B41516DF6A7463D745"
            },
            {
              "name": "cookieconsent_status",
              "value": "dismiss"
            },
            {
              "name": "JSESSIONID",
              "value": "node0klk4an8xm8f01peuew2v2tx9v7.node0"
            },
            {
              "name": "screenResolution",
              "value": "1920x1080"
            }
          ],
          "queryString": [],
          "headersSize": 686,
          "postData": {
            "mimeType": "application/json;charset=utf-8",
            "params": [],
            "text": "{\"modules\":[\"uicommons\"],\"action\":\"install\",\"installUri\":\"https://dl.bintray.com/openmrs/omod/uicommons-2.15.0.omod\"}"
          }
        },
        "response": {
          "status": 201,
          "statusText": "",
          "httpVersion": "HTTP/1.1",
          "headers": [
            {
              "name": "Content-Type",
              "value": "application/json;charset=UTF-8"
            },
            {
              "name": "Content-Length",
              "value": "239"
            },
            {
              "name": "Date",
              "value": "Fri, 27 Nov 2020 05:07:42 GMT"
            },
            {
              "name": "Keep-Alive",
              "value": "timeout=20"
            },
            {
              "name": "Connection",
              "value": "keep-alive"
            }
          ],
          "cookies": [],
          "content": {
            "mimeType": "application/json; charset=UTF-8",
            "size": 239,
            "text": "{\"modules\":[{\"uuid\":\"uicommons\",\"display\":\"UI Commons Module\",\"links\":[{\"rel\":\"self\",\"uri\":\"http://localhost:8080/openmrs_2.3.2http://localhost:8080/openmrs_2.3.2/ws/rest/v1/module/uicommons\"}]}],\"action\":\"INSTALL\",\"resourceVersion\":\"1.8\"}"
          },
          "redirectURL": "",
          "headersSize": 169,
          "bodySize": 408
        },
        "cache": {},
        "timings": {
          "blocked": 0,
          "dns": 0,
          "connect": 0,
          "ssl": 0,
          "send": 0,
          "wait": 13974,
          "receive": 0
        },
        "time": 13974,
        "_securityState": "insecure",
        "serverIPAddress": "::1",
        "connection": "8080"
      },
      {
        "pageref": "page_3",
        "startedDateTime": "2020-11-24T18:07:47.227+13:00",
        "request": {
          "bodySize": 116,
          "method": "POST",
          "url": "http://localhost:8080/openmrs_2.3.2/ws/rest/v1/moduleaction",
          "httpVersion": "HTTP/1.1",
          "headers": [
            {
              "name": "Host",
              "value": "localhost:8080"
            },
            {
              "name": "User-Agent",
              "value": "Mozilla/5.0 (Windows NT 10.0; Win64; x64; rv:78.0) Gecko/20100101 Firefox/78.0"
            },
            {
              "name": "Accept",
              "value": "application/json, text/plain, */*"
            },
            {
              "name": "Accept-Language",
              "value": "en-US,en;q=0.5"
            },
            {
              "name": "Accept-Encoding",
              "value": "gzip, deflate"
            },
            {
              "name": "Content-Type",
              "value": "application/json;charset=utf-8"
            },
            {
              "name": "Content-Length",
              "value": "116"
            },
            {
              "name": "Origin",
              "value": "http://localhost:8080"
            },
            {
              "name": "DNT",
              "value": "1"
            },
            {
              "name": "Connection",
              "value": "keep-alive"
            },
            {
              "name": "Referer",
              "value": "http://localhost:8080/openmrs_2.3.2/owa/addonmanager/index.html"
            },
            {
              "name": "Cookie",
              "value": "JSESSIONID=E5A0A7C9BA8797B41516DF6A7463D745; cookieconsent_status=dismiss; JSESSIONID=node0klk4an8xm8f01peuew2v2tx9v7.node0; screenResolution=1920x1080"
            },
            {
              "name": "Pragma",
              "value": "no-cache"
            },
            {
              "name": "Cache-Control",
              "value": "no-cache"
            }
          ],
          "cookies": [
            {
              "name": "JSESSIONID",
              "value": "E5A0A7C9BA8797B41516DF6A7463D745"
            },
            {
              "name": "cookieconsent_status",
              "value": "dismiss"
            },
            {
              "name": "JSESSIONID",
              "value": "node0klk4an8xm8f01peuew2v2tx9v7.node0"
            },
            {
              "name": "screenResolution",
              "value": "1920x1080"
            }
          ],
          "queryString": [],
          "headersSize": 686,
          "postData": {
            "mimeType": "application/json;charset=utf-8",
            "params": [],
            "text": "{\"modules\":[\"uilibrary\"],\"action\":\"install\",\"installUri\":\"https://dl.bintray.com/openmrs/omod/uilibrary-2.0.6.omod\"}"
          }
        },
        "response": {
          "status": 201,
          "statusText": "",
          "httpVersion": "HTTP/1.1",
          "headers": [
            {
              "name": "Content-Type",
              "value": "application/json;charset=UTF-8"
            },
            {
              "name": "Content-Length",
              "value": "239"
            },
            {
              "name": "Date",
              "value": "Fri, 27 Nov 2020 05:07:51 GMT"
            },
            {
              "name": "Keep-Alive",
              "value": "timeout=20"
            },
            {
              "name": "Connection",
              "value": "keep-alive"
            }
          ],
          "cookies": [],
          "content": {
            "mimeType": "application/json; charset=UTF-8",
            "size": 239,
            "text": "{\"modules\":[{\"uuid\":\"uilibrary\",\"display\":\"UI Library Module\",\"links\":[{\"rel\":\"self\",\"uri\":\"http://localhost:8080/openmrs_2.3.2http://localhost:8080/openmrs_2.3.2/ws/rest/v1/module/uilibrary\"}]}],\"action\":\"INSTALL\",\"resourceVersion\":\"1.8\"}"
          },
          "redirectURL": "",
          "headersSize": 169,
          "bodySize": 408
        },
        "cache": {},
        "timings": {
          "blocked": 1,
          "dns": 0,
          "connect": 0,
          "ssl": 0,
          "send": 0,
          "wait": 4585,
          "receive": 0
        },
        "time": 4586,
        "_securityState": "insecure",
        "serverIPAddress": "::1",
        "connection": "8080"
      },
      {
        "pageref": "page_3",
        "startedDateTime": "2020-11-24T18:08:07.296+13:00",
        "request": {
          "bodySize": 123,
          "method": "POST",
          "url": "http://localhost:8080/openmrs_2.3.2/ws/rest/v1/moduleaction",
          "httpVersion": "HTTP/1.1",
          "headers": [
            {
              "name": "Host",
              "value": "localhost:8080"
            },
            {
              "name": "User-Agent",
              "value": "Mozilla/5.0 (Windows NT 10.0; Win64; x64; rv:78.0) Gecko/20100101 Firefox/78.0"
            },
            {
              "name": "Accept",
              "value": "application/json, text/plain, */*"
            },
            {
              "name": "Accept-Language",
              "value": "en-US,en;q=0.5"
            },
            {
              "name": "Accept-Encoding",
              "value": "gzip, deflate"
            },
            {
              "name": "Content-Type",
              "value": "application/json;charset=utf-8"
            },
            {
              "name": "Content-Length",
              "value": "123"
            },
            {
              "name": "Origin",
              "value": "http://localhost:8080"
            },
            {
              "name": "DNT",
              "value": "1"
            },
            {
              "name": "Connection",
              "value": "keep-alive"
            },
            {
              "name": "Referer",
              "value": "http://localhost:8080/openmrs_2.3.2/owa/addonmanager/index.html"
            },
            {
              "name": "Cookie",
              "value": "JSESSIONID=E5A0A7C9BA8797B41516DF6A7463D745; cookieconsent_status=dismiss; JSESSIONID=node0klk4an8xm8f01peuew2v2tx9v7.node0; screenResolution=1920x1080"
            },
            {
              "name": "Pragma",
              "value": "no-cache"
            },
            {
              "name": "Cache-Control",
              "value": "no-cache"
            }
          ],
          "cookies": [
            {
              "name": "JSESSIONID",
              "value": "E5A0A7C9BA8797B41516DF6A7463D745"
            },
            {
              "name": "cookieconsent_status",
              "value": "dismiss"
            },
            {
              "name": "JSESSIONID",
              "value": "node0klk4an8xm8f01peuew2v2tx9v7.node0"
            },
            {
              "name": "screenResolution",
              "value": "1920x1080"
            }
          ],
          "queryString": [],
          "headersSize": 686,
          "postData": {
            "mimeType": "application/json;charset=utf-8",
            "params": [],
            "text": "{\"modules\":[\"appframework\"],\"action\":\"install\",\"installUri\":\"https://dl.bintray.com/openmrs/omod/appframework-2.16.0.omod\"}"
          }
        },
        "response": {
          "status": 201,
          "statusText": "",
          "httpVersion": "HTTP/1.1",
          "headers": [
            {
              "name": "Content-Type",
              "value": "application/json;charset=UTF-8"
            },
            {
              "name": "Content-Length",
              "value": "248"
            },
            {
              "name": "Date",
              "value": "Fri, 27 Nov 2020 05:08:33 GMT"
            },
            {
              "name": "Keep-Alive",
              "value": "timeout=20"
            },
            {
              "name": "Connection",
              "value": "keep-alive"
            }
          ],
          "cookies": [],
          "content": {
            "mimeType": "application/json; charset=UTF-8",
            "size": 248,
            "text": "{\"modules\":[{\"uuid\":\"appframework\",\"display\":\"App Framework Module\",\"links\":[{\"rel\":\"self\",\"uri\":\"http://localhost:8080/openmrs_2.3.2http://localhost:8080/openmrs_2.3.2/ws/rest/v1/module/appframework\"}]}],\"action\":\"INSTALL\",\"resourceVersion\":\"1.8\"}"
          },
          "redirectURL": "",
          "headersSize": 169,
          "bodySize": 417
        },
        "cache": {},
        "timings": {
          "blocked": 1,
          "dns": 0,
          "connect": 0,
          "ssl": 0,
          "send": 0,
          "wait": 26027,
          "receive": 0
        },
        "time": 26028,
        "_securityState": "insecure",
        "serverIPAddress": "::1",
        "connection": "8080"
      },
      {
        "pageref": "page_3",
        "startedDateTime": "2020-11-24T18:08:36.447+13:00",
        "request": {
          "bodySize": 109,
          "method": "POST",
          "url": "http://localhost:8080/openmrs_2.3.2/ws/rest/v1/moduleaction",
          "httpVersion": "HTTP/1.1",
          "headers": [
            {
              "name": "Host",
              "value": "localhost:8080"
            },
            {
              "name": "User-Agent",
              "value": "Mozilla/5.0 (Windows NT 10.0; Win64; x64; rv:78.0) Gecko/20100101 Firefox/78.0"
            },
            {
              "name": "Accept",
              "value": "application/json, text/plain, */*"
            },
            {
              "name": "Accept-Language",
              "value": "en-US,en;q=0.5"
            },
            {
              "name": "Accept-Encoding",
              "value": "gzip, deflate"
            },
            {
              "name": "Content-Type",
              "value": "application/json;charset=utf-8"
            },
            {
              "name": "Content-Length",
              "value": "109"
            },
            {
              "name": "Origin",
              "value": "http://localhost:8080"
            },
            {
              "name": "DNT",
              "value": "1"
            },
            {
              "name": "Connection",
              "value": "keep-alive"
            },
            {
              "name": "Referer",
              "value": "http://localhost:8080/openmrs_2.3.2/owa/addonmanager/index.html"
            },
            {
              "name": "Cookie",
              "value": "JSESSIONID=E5A0A7C9BA8797B41516DF6A7463D745; cookieconsent_status=dismiss; JSESSIONID=node0klk4an8xm8f01peuew2v2tx9v7.node0; screenResolution=1920x1080"
            },
            {
              "name": "Pragma",
              "value": "no-cache"
            },
            {
              "name": "Cache-Control",
              "value": "no-cache"
            }
          ],
          "cookies": [
            {
              "name": "JSESSIONID",
              "value": "E5A0A7C9BA8797B41516DF6A7463D745"
            },
            {
              "name": "cookieconsent_status",
              "value": "dismiss"
            },
            {
              "name": "JSESSIONID",
              "value": "node0klk4an8xm8f01peuew2v2tx9v7.node0"
            },
            {
              "name": "screenResolution",
              "value": "1920x1080"
            }
          ],
          "queryString": [],
          "headersSize": 686,
          "postData": {
            "mimeType": "application/json;charset=utf-8",
            "params": [],
            "text": "{\"modules\":[\"appui\"],\"action\":\"install\",\"installUri\":\"https://dl.bintray.com/openmrs/omod/appui-1.13.0.omod\"}"
          }
        },
        "response": {
          "status": 201,
          "statusText": "",
          "httpVersion": "HTTP/1.1",
          "headers": [
            {
              "name": "Content-Type",
              "value": "application/json;charset=UTF-8"
            },
            {
              "name": "Content-Length",
              "value": "227"
            },
            {
              "name": "Date",
              "value": "Fri, 27 Nov 2020 05:08:38 GMT"
            },
            {
              "name": "Keep-Alive",
              "value": "timeout=20"
            },
            {
              "name": "Connection",
              "value": "keep-alive"
            }
          ],
          "cookies": [],
          "content": {
            "mimeType": "application/json; charset=UTF-8",
            "size": 227,
            "text": "{\"modules\":[{\"uuid\":\"appui\",\"display\":\"App UI Module\",\"links\":[{\"rel\":\"self\",\"uri\":\"http://localhost:8080/openmrs_2.3.2http://localhost:8080/openmrs_2.3.2/ws/rest/v1/module/appui\"}]}],\"action\":\"INSTALL\",\"resourceVersion\":\"1.8\"}"
          },
          "redirectURL": "",
          "headersSize": 169,
          "bodySize": 396
        },
        "cache": {},
        "timings": {
          "blocked": 0,
          "dns": 0,
          "connect": 0,
          "ssl": 0,
          "send": 0,
          "wait": 2492,
          "receive": 0
        },
        "time": 2492,
        "_securityState": "insecure",
        "serverIPAddress": "::1",
        "connection": "8080"
      },
      {
        "pageref": "page_3",
        "startedDateTime": "2020-11-24T18:09:14.548+13:00",
        "request": {
          "bodySize": 135,
          "method": "POST",
          "url": "http://localhost:8080/openmrs_2.3.2/ws/rest/v1/moduleaction",
          "httpVersion": "HTTP/1.1",
          "headers": [
            {
              "name": "Host",
              "value": "localhost:8080"
            },
            {
              "name": "User-Agent",
              "value": "Mozilla/5.0 (Windows NT 10.0; Win64; x64; rv:78.0) Gecko/20100101 Firefox/78.0"
            },
            {
              "name": "Accept",
              "value": "application/json, text/plain, */*"
            },
            {
              "name": "Accept-Language",
              "value": "en-US,en;q=0.5"
            },
            {
              "name": "Accept-Encoding",
              "value": "gzip, deflate"
            },
            {
              "name": "Content-Type",
              "value": "application/json;charset=utf-8"
            },
            {
              "name": "Content-Length",
              "value": "135"
            },
            {
              "name": "Origin",
              "value": "http://localhost:8080"
            },
            {
              "name": "DNT",
              "value": "1"
            },
            {
              "name": "Connection",
              "value": "keep-alive"
            },
            {
              "name": "Referer",
              "value": "http://localhost:8080/openmrs_2.3.2/owa/addonmanager/index.html"
            },
            {
              "name": "Cookie",
              "value": "JSESSIONID=E5A0A7C9BA8797B41516DF6A7463D745; cookieconsent_status=dismiss; JSESSIONID=node0klk4an8xm8f01peuew2v2tx9v7.node0; screenResolution=1920x1080"
            },
            {
              "name": "Pragma",
              "value": "no-cache"
            },
            {
              "name": "Cache-Control",
              "value": "no-cache"
            }
          ],
          "cookies": [
            {
              "name": "JSESSIONID",
              "value": "E5A0A7C9BA8797B41516DF6A7463D745"
            },
            {
              "name": "cookieconsent_status",
              "value": "dismiss"
            },
            {
              "name": "JSESSIONID",
              "value": "node0klk4an8xm8f01peuew2v2tx9v7.node0"
            },
            {
              "name": "screenResolution",
              "value": "1920x1080"
            }
          ],
          "queryString": [],
          "headersSize": 686,
          "postData": {
            "mimeType": "application/json;charset=utf-8",
            "params": [],
            "text": "{\"modules\":[\"providermanagement\"],\"action\":\"install\",\"installUri\":\"https://dl.bintray.com/openmrs/omod/providermanagement-2.12.0.omod\"}"
          }
        },
        "response": {
          "status": 201,
          "statusText": "",
          "httpVersion": "HTTP/1.1",
          "headers": [
            {
              "name": "Content-Type",
              "value": "application/json;charset=UTF-8"
            },
            {
              "name": "Content-Length",
              "value": "266"
            },
            {
              "name": "Date",
              "value": "Fri, 27 Nov 2020 05:09:17 GMT"
            },
            {
              "name": "Keep-Alive",
              "value": "timeout=20"
            },
            {
              "name": "Connection",
              "value": "keep-alive"
            }
          ],
          "cookies": [],
          "content": {
            "mimeType": "application/json; charset=UTF-8",
            "size": 266,
            "text": "{\"modules\":[{\"uuid\":\"providermanagement\",\"display\":\"Provider Management Module\",\"links\":[{\"rel\":\"self\",\"uri\":\"http://localhost:8080/openmrs_2.3.2http://localhost:8080/openmrs_2.3.2/ws/rest/v1/module/providermanagement\"}]}],\"action\":\"INSTALL\",\"resourceVersion\":\"1.8\"}"
          },
          "redirectURL": "",
          "headersSize": 169,
          "bodySize": 435
        },
        "cache": {},
        "timings": {
          "blocked": 0,
          "dns": 0,
          "connect": 0,
          "ssl": 0,
          "send": 0,
          "wait": 2499,
          "receive": 0
        },
        "time": 2499,
        "_securityState": "insecure",
        "serverIPAddress": "::1",
        "connection": "8080"
      },
      {
        "pageref": "page_3",
        "startedDateTime": "2020-11-24T18:09:53.340+13:00",
        "request": {
          "bodySize": 121,
          "method": "POST",
          "url": "http://localhost:8080/openmrs_2.3.2/ws/rest/v1/moduleaction",
          "httpVersion": "HTTP/1.1",
          "headers": [
            {
              "name": "Host",
              "value": "localhost:8080"
            },
            {
              "name": "User-Agent",
              "value": "Mozilla/5.0 (Windows NT 10.0; Win64; x64; rv:78.0) Gecko/20100101 Firefox/78.0"
            },
            {
              "name": "Accept",
              "value": "application/json, text/plain, */*"
            },
            {
              "name": "Accept-Language",
              "value": "en-US,en;q=0.5"
            },
            {
              "name": "Accept-Encoding",
              "value": "gzip, deflate"
            },
            {
              "name": "Content-Type",
              "value": "application/json;charset=utf-8"
            },
            {
              "name": "Content-Length",
              "value": "121"
            },
            {
              "name": "Origin",
              "value": "http://localhost:8080"
            },
            {
              "name": "DNT",
              "value": "1"
            },
            {
              "name": "Connection",
              "value": "keep-alive"
            },
            {
              "name": "Referer",
              "value": "http://localhost:8080/openmrs_2.3.2/owa/addonmanager/index.html"
            },
            {
              "name": "Cookie",
              "value": "JSESSIONID=E5A0A7C9BA8797B41516DF6A7463D745; cookieconsent_status=dismiss; JSESSIONID=node0klk4an8xm8f01peuew2v2tx9v7.node0; screenResolution=1920x1080"
            },
            {
              "name": "Pragma",
              "value": "no-cache"
            },
            {
              "name": "Cache-Control",
              "value": "no-cache"
            }
          ],
          "cookies": [
            {
              "name": "JSESSIONID",
              "value": "E5A0A7C9BA8797B41516DF6A7463D745"
            },
            {
              "name": "cookieconsent_status",
              "value": "dismiss"
            },
            {
              "name": "JSESSIONID",
              "value": "node0klk4an8xm8f01peuew2v2tx9v7.node0"
            },
            {
              "name": "screenResolution",
              "value": "1920x1080"
            }
          ],
          "queryString": [],
          "headersSize": 686,
          "postData": {
            "mimeType": "application/json;charset=utf-8",
            "params": [],
            "text": "{\"modules\":[\"uiframework\"],\"action\":\"install\",\"installUri\":\"https://dl.bintray.com/openmrs/omod/uiframework-3.19.0.omod\"}"
          }
        },
        "response": {
          "status": 201,
          "statusText": "",
          "httpVersion": "HTTP/1.1",
          "headers": [
            {
              "name": "Content-Type",
              "value": "application/json;charset=UTF-8"
            },
            {
              "name": "Content-Length",
              "value": "246"
            },
            {
              "name": "Date",
              "value": "Fri, 27 Nov 2020 05:10:19 GMT"
            },
            {
              "name": "Keep-Alive",
              "value": "timeout=20"
            },
            {
              "name": "Connection",
              "value": "keep-alive"
            }
          ],
          "cookies": [],
          "content": {
            "mimeType": "application/json; charset=UTF-8",
            "size": 246,
            "text": "{\"modules\":[{\"uuid\":\"uiframework\",\"display\":\"OpenMRS UI Framework\",\"links\":[{\"rel\":\"self\",\"uri\":\"http://localhost:8080/openmrs_2.3.2http://localhost:8080/openmrs_2.3.2/ws/rest/v1/module/uiframework\"}]}],\"action\":\"INSTALL\",\"resourceVersion\":\"1.8\"}"
          },
          "redirectURL": "",
          "headersSize": 169,
          "bodySize": 415
        },
        "cache": {},
        "timings": {
          "blocked": 0,
          "dns": 0,
          "connect": 0,
          "ssl": 0,
          "send": 0,
          "wait": 26590,
          "receive": 0
        },
        "time": 26590,
        "_securityState": "insecure",
        "serverIPAddress": "::1",
        "connection": "8080"
      },
      {
        "pageref": "page_3",
        "startedDateTime": "2020-11-24T18:10:42.986+13:00",
        "request": {
          "bodySize": 42,
          "method": "POST",
          "url": "http://localhost:8080/openmrs_2.3.2/ws/rest/v1/moduleaction",
          "httpVersion": "HTTP/1.1",
          "headers": [
            {
              "name": "Host",
              "value": "localhost:8080"
            },
            {
              "name": "User-Agent",
              "value": "Mozilla/5.0 (Windows NT 10.0; Win64; x64; rv:78.0) Gecko/20100101 Firefox/78.0"
            },
            {
              "name": "Accept",
              "value": "application/json, text/plain, */*"
            },
            {
              "name": "Accept-Language",
              "value": "en-US,en;q=0.5"
            },
            {
              "name": "Accept-Encoding",
              "value": "gzip, deflate"
            },
            {
              "name": "Content-Type",
              "value": "application/json;charset=utf-8"
            },
            {
              "name": "Content-Length",
              "value": "42"
            },
            {
              "name": "Origin",
              "value": "http://localhost:8080"
            },
            {
              "name": "DNT",
              "value": "1"
            },
            {
              "name": "Connection",
              "value": "keep-alive"
            },
            {
              "name": "Referer",
              "value": "http://localhost:8080/openmrs_2.3.2/owa/addonmanager/index.html"
            },
            {
              "name": "Cookie",
              "value": "JSESSIONID=E5A0A7C9BA8797B41516DF6A7463D745; cookieconsent_status=dismiss; JSESSIONID=node0klk4an8xm8f01peuew2v2tx9v7.node0; screenResolution=1920x1080"
            },
            {
              "name": "Pragma",
              "value": "no-cache"
            },
            {
              "name": "Cache-Control",
              "value": "no-cache"
            }
          ],
          "cookies": [
            {
              "name": "JSESSIONID",
              "value": "E5A0A7C9BA8797B41516DF6A7463D745"
            },
            {
              "name": "cookieconsent_status",
              "value": "dismiss"
            },
            {
              "name": "JSESSIONID",
              "value": "node0klk4an8xm8f01peuew2v2tx9v7.node0"
            },
            {
              "name": "screenResolution",
              "value": "1920x1080"
            }
          ],
          "queryString": [],
          "headersSize": 685,
          "postData": {
            "mimeType": "application/json;charset=utf-8",
            "params": [],
            "text": "{\"action\":\"start\",\"modules\":[\"uicommons\"]}"
          }
        },
        "response": {
          "status": 201,
          "statusText": "",
          "httpVersion": "HTTP/1.1",
          "headers": [
            {
              "name": "Content-Type",
              "value": "application/json;charset=UTF-8"
            },
            {
              "name": "Content-Length",
              "value": "237"
            },
            {
              "name": "Date",
              "value": "Fri, 27 Nov 2020 05:10:55 GMT"
            },
            {
              "name": "Keep-Alive",
              "value": "timeout=20"
            },
            {
              "name": "Connection",
              "value": "keep-alive"
            }
          ],
          "cookies": [],
          "content": {
            "mimeType": "application/json; charset=UTF-8",
            "size": 237,
            "text": "{\"modules\":[{\"uuid\":\"uicommons\",\"display\":\"UI Commons Module\",\"links\":[{\"rel\":\"self\",\"uri\":\"http://localhost:8080/openmrs_2.3.2http://localhost:8080/openmrs_2.3.2/ws/rest/v1/module/uicommons\"}]}],\"action\":\"START\",\"resourceVersion\":\"1.8\"}"
          },
          "redirectURL": "",
          "headersSize": 169,
          "bodySize": 406
        },
        "cache": {},
        "timings": {
          "blocked": 0,
          "dns": 0,
          "connect": 0,
          "ssl": 0,
          "send": 0,
          "wait": 12368,
          "receive": 0
        },
        "time": 12368,
        "_securityState": "insecure",
        "serverIPAddress": "::1",
        "connection": "8080"
      },
      {
        "pageref": "page_3",
        "startedDateTime": "2020-11-24T18:11:04.507+13:00",
        "request": {
          "bodySize": 42,
          "method": "POST",
          "url": "http://localhost:8080/openmrs_2.3.2/ws/rest/v1/moduleaction",
          "httpVersion": "HTTP/1.1",
          "headers": [
            {
              "name": "Host",
              "value": "localhost:8080"
            },
            {
              "name": "User-Agent",
              "value": "Mozilla/5.0 (Windows NT 10.0; Win64; x64; rv:78.0) Gecko/20100101 Firefox/78.0"
            },
            {
              "name": "Accept",
              "value": "application/json, text/plain, */*"
            },
            {
              "name": "Accept-Language",
              "value": "en-US,en;q=0.5"
            },
            {
              "name": "Accept-Encoding",
              "value": "gzip, deflate"
            },
            {
              "name": "Content-Type",
              "value": "application/json;charset=utf-8"
            },
            {
              "name": "Content-Length",
              "value": "42"
            },
            {
              "name": "Origin",
              "value": "http://localhost:8080"
            },
            {
              "name": "DNT",
              "value": "1"
            },
            {
              "name": "Connection",
              "value": "keep-alive"
            },
            {
              "name": "Referer",
              "value": "http://localhost:8080/openmrs_2.3.2/owa/addonmanager/index.html"
            },
            {
              "name": "Cookie",
              "value": "JSESSIONID=E5A0A7C9BA8797B41516DF6A7463D745; cookieconsent_status=dismiss; JSESSIONID=node0klk4an8xm8f01peuew2v2tx9v7.node0; screenResolution=1920x1080"
            },
            {
              "name": "Pragma",
              "value": "no-cache"
            },
            {
              "name": "Cache-Control",
              "value": "no-cache"
            }
          ],
          "cookies": [
            {
              "name": "JSESSIONID",
              "value": "E5A0A7C9BA8797B41516DF6A7463D745"
            },
            {
              "name": "cookieconsent_status",
              "value": "dismiss"
            },
            {
              "name": "JSESSIONID",
              "value": "node0klk4an8xm8f01peuew2v2tx9v7.node0"
            },
            {
              "name": "screenResolution",
              "value": "1920x1080"
            }
          ],
          "queryString": [],
          "headersSize": 685,
          "postData": {
            "mimeType": "application/json;charset=utf-8",
            "params": [],
            "text": "{\"action\":\"start\",\"modules\":[\"uilibrary\"]}"
          }
        },
        "response": {
          "status": 201,
          "statusText": "",
          "httpVersion": "HTTP/1.1",
          "headers": [
            {
              "name": "Content-Type",
              "value": "application/json;charset=UTF-8"
            },
            {
              "name": "Content-Length",
              "value": "237"
            },
            {
              "name": "Date",
              "value": "Fri, 27 Nov 2020 05:11:16 GMT"
            },
            {
              "name": "Keep-Alive",
              "value": "timeout=20"
            },
            {
              "name": "Connection",
              "value": "keep-alive"
            }
          ],
          "cookies": [],
          "content": {
            "mimeType": "application/json; charset=UTF-8",
            "size": 237,
            "text": "{\"modules\":[{\"uuid\":\"uilibrary\",\"display\":\"UI Library Module\",\"links\":[{\"rel\":\"self\",\"uri\":\"http://localhost:8080/openmrs_2.3.2http://localhost:8080/openmrs_2.3.2/ws/rest/v1/module/uilibrary\"}]}],\"action\":\"START\",\"resourceVersion\":\"1.8\"}"
          },
          "redirectURL": "",
          "headersSize": 169,
          "bodySize": 406
        },
        "cache": {},
        "timings": {
          "blocked": 1,
          "dns": 0,
          "connect": 0,
          "ssl": 0,
          "send": 0,
          "wait": 12192,
          "receive": 0
        },
        "time": 12193,
        "_securityState": "insecure",
        "serverIPAddress": "::1",
        "connection": "8080"
      },
      {
        "pageref": "page_3",
        "startedDateTime": "2020-11-24T18:11:25.018+13:00",
        "request": {
          "bodySize": 51,
          "method": "POST",
          "url": "http://localhost:8080/openmrs_2.3.2/ws/rest/v1/moduleaction",
          "httpVersion": "HTTP/1.1",
          "headers": [
            {
              "name": "Host",
              "value": "localhost:8080"
            },
            {
              "name": "User-Agent",
              "value": "Mozilla/5.0 (Windows NT 10.0; Win64; x64; rv:78.0) Gecko/20100101 Firefox/78.0"
            },
            {
              "name": "Accept",
              "value": "application/json, text/plain, */*"
            },
            {
              "name": "Accept-Language",
              "value": "en-US,en;q=0.5"
            },
            {
              "name": "Accept-Encoding",
              "value": "gzip, deflate"
            },
            {
              "name": "Content-Type",
              "value": "application/json;charset=utf-8"
            },
            {
              "name": "Content-Length",
              "value": "51"
            },
            {
              "name": "Origin",
              "value": "http://localhost:8080"
            },
            {
              "name": "DNT",
              "value": "1"
            },
            {
              "name": "Connection",
              "value": "keep-alive"
            },
            {
              "name": "Referer",
              "value": "http://localhost:8080/openmrs_2.3.2/owa/addonmanager/index.html"
            },
            {
              "name": "Cookie",
              "value": "JSESSIONID=E5A0A7C9BA8797B41516DF6A7463D745; cookieconsent_status=dismiss; JSESSIONID=node0klk4an8xm8f01peuew2v2tx9v7.node0; screenResolution=1920x1080"
            },
            {
              "name": "Pragma",
              "value": "no-cache"
            },
            {
              "name": "Cache-Control",
              "value": "no-cache"
            }
          ],
          "cookies": [
            {
              "name": "JSESSIONID",
              "value": "E5A0A7C9BA8797B41516DF6A7463D745"
            },
            {
              "name": "cookieconsent_status",
              "value": "dismiss"
            },
            {
              "name": "JSESSIONID",
              "value": "node0klk4an8xm8f01peuew2v2tx9v7.node0"
            },
            {
              "name": "screenResolution",
              "value": "1920x1080"
            }
          ],
          "queryString": [],
          "headersSize": 685,
          "postData": {
            "mimeType": "application/json;charset=utf-8",
            "params": [],
            "text": "{\"action\":\"start\",\"modules\":[\"providermanagement\"]}"
          }
        },
        "response": {
          "status": 201,
          "statusText": "",
          "httpVersion": "HTTP/1.1",
          "headers": [
            {
              "name": "Content-Type",
              "value": "application/json;charset=UTF-8"
            },
            {
              "name": "Content-Length",
              "value": "264"
            },
            {
              "name": "Date",
              "value": "Fri, 27 Nov 2020 05:12:11 GMT"
            },
            {
              "name": "Keep-Alive",
              "value": "timeout=20"
            },
            {
              "name": "Connection",
              "value": "keep-alive"
            }
          ],
          "cookies": [],
          "content": {
            "mimeType": "application/json; charset=UTF-8",
            "size": 264,
            "text": "{\"modules\":[{\"uuid\":\"providermanagement\",\"display\":\"Provider Management Module\",\"links\":[{\"rel\":\"self\",\"uri\":\"http://localhost:8080/openmrs_2.3.2http://localhost:8080/openmrs_2.3.2/ws/rest/v1/module/providermanagement\"}]}],\"action\":\"START\",\"resourceVersion\":\"1.8\"}"
          },
          "redirectURL": "",
          "headersSize": 169,
          "bodySize": 433
        },
        "cache": {},
        "timings": {
          "blocked": 0,
          "dns": 0,
          "connect": 0,
          "ssl": 0,
          "send": 0,
          "wait": 46875,
          "receive": 1
        },
        "time": 46876,
        "_securityState": "insecure",
        "serverIPAddress": "::1",
        "connection": "8080"
      },
      {
        "pageref": "page_3",
        "startedDateTime": "2020-11-24T18:12:20.123+13:00",
        "request": {
          "bodySize": 38,
          "method": "POST",
          "url": "http://localhost:8080/openmrs_2.3.2/ws/rest/v1/moduleaction",
          "httpVersion": "HTTP/1.1",
          "headers": [
            {
              "name": "Host",
              "value": "localhost:8080"
            },
            {
              "name": "User-Agent",
              "value": "Mozilla/5.0 (Windows NT 10.0; Win64; x64; rv:78.0) Gecko/20100101 Firefox/78.0"
            },
            {
              "name": "Accept",
              "value": "application/json, text/plain, */*"
            },
            {
              "name": "Accept-Language",
              "value": "en-US,en;q=0.5"
            },
            {
              "name": "Accept-Encoding",
              "value": "gzip, deflate"
            },
            {
              "name": "Content-Type",
              "value": "application/json;charset=utf-8"
            },
            {
              "name": "Content-Length",
              "value": "38"
            },
            {
              "name": "Origin",
              "value": "http://localhost:8080"
            },
            {
              "name": "DNT",
              "value": "1"
            },
            {
              "name": "Connection",
              "value": "keep-alive"
            },
            {
              "name": "Referer",
              "value": "http://localhost:8080/openmrs_2.3.2/owa/addonmanager/index.html"
            },
            {
              "name": "Cookie",
              "value": "JSESSIONID=E5A0A7C9BA8797B41516DF6A7463D745; cookieconsent_status=dismiss; JSESSIONID=node0klk4an8xm8f01peuew2v2tx9v7.node0; screenResolution=1920x1080"
            },
            {
              "name": "Pragma",
              "value": "no-cache"
            },
            {
              "name": "Cache-Control",
              "value": "no-cache"
            }
          ],
          "cookies": [
            {
              "name": "JSESSIONID",
              "value": "E5A0A7C9BA8797B41516DF6A7463D745"
            },
            {
              "name": "cookieconsent_status",
              "value": "dismiss"
            },
            {
              "name": "JSESSIONID",
              "value": "node0klk4an8xm8f01peuew2v2tx9v7.node0"
            },
            {
              "name": "screenResolution",
              "value": "1920x1080"
            }
          ],
          "queryString": [],
          "headersSize": 685,
          "postData": {
            "mimeType": "application/json;charset=utf-8",
            "params": [],
            "text": "{\"action\":\"start\",\"modules\":[\"appui\"]}"
          }
        },
        "response": {
          "status": 201,
          "statusText": "",
          "httpVersion": "HTTP/1.1",
          "headers": [
            {
              "name": "Content-Type",
              "value": "application/json;charset=UTF-8"
            },
            {
              "name": "Content-Length",
              "value": "225"
            },
            {
              "name": "Date",
              "value": "Fri, 27 Nov 2020 05:12:32 GMT"
            },
            {
              "name": "Keep-Alive",
              "value": "timeout=20"
            },
            {
              "name": "Connection",
              "value": "keep-alive"
            }
          ],
          "cookies": [],
          "content": {
            "mimeType": "application/json; charset=UTF-8",
            "size": 225,
            "text": "{\"modules\":[{\"uuid\":\"appui\",\"display\":\"App UI Module\",\"links\":[{\"rel\":\"self\",\"uri\":\"http://localhost:8080/openmrs_2.3.2http://localhost:8080/openmrs_2.3.2/ws/rest/v1/module/appui\"}]}],\"action\":\"START\",\"resourceVersion\":\"1.8\"}"
          },
          "redirectURL": "",
          "headersSize": 169,
          "bodySize": 394
        },
        "cache": {},
        "timings": {
          "blocked": 0,
          "dns": 0,
          "connect": 0,
          "ssl": 0,
          "send": 0,
          "wait": 11949,
          "receive": 0
        },
        "time": 11949,
        "_securityState": "insecure",
        "serverIPAddress": "::1",
        "connection": "8080"
      },
      {
        "pageref": "page_3",
        "startedDateTime": "2020-11-24T18:12:38.361+13:00",
        "request": {
          "bodySize": 40,
          "method": "POST",
          "url": "http://localhost:8080/openmrs_2.3.2/ws/rest/v1/moduleaction",
          "httpVersion": "HTTP/1.1",
          "headers": [
            {
              "name": "Host",
              "value": "localhost:8080"
            },
            {
              "name": "User-Agent",
              "value": "Mozilla/5.0 (Windows NT 10.0; Win64; x64; rv:78.0) Gecko/20100101 Firefox/78.0"
            },
            {
              "name": "Accept",
              "value": "application/json, text/plain, */*"
            },
            {
              "name": "Accept-Language",
              "value": "en-US,en;q=0.5"
            },
            {
              "name": "Accept-Encoding",
              "value": "gzip, deflate"
            },
            {
              "name": "Content-Type",
              "value": "application/json;charset=utf-8"
            },
            {
              "name": "Content-Length",
              "value": "40"
            },
            {
              "name": "Origin",
              "value": "http://localhost:8080"
            },
            {
              "name": "DNT",
              "value": "1"
            },
            {
              "name": "Connection",
              "value": "keep-alive"
            },
            {
              "name": "Referer",
              "value": "http://localhost:8080/openmrs_2.3.2/owa/addonmanager/index.html"
            },
            {
              "name": "Cookie",
              "value": "JSESSIONID=E5A0A7C9BA8797B41516DF6A7463D745; cookieconsent_status=dismiss; JSESSIONID=node0klk4an8xm8f01peuew2v2tx9v7.node0; screenResolution=1920x1080"
            },
            {
              "name": "Pragma",
              "value": "no-cache"
            },
            {
              "name": "Cache-Control",
              "value": "no-cache"
            }
          ],
          "cookies": [
            {
              "name": "JSESSIONID",
              "value": "E5A0A7C9BA8797B41516DF6A7463D745"
            },
            {
              "name": "cookieconsent_status",
              "value": "dismiss"
            },
            {
              "name": "JSESSIONID",
              "value": "node0klk4an8xm8f01peuew2v2tx9v7.node0"
            },
            {
              "name": "screenResolution",
              "value": "1920x1080"
            }
          ],
          "queryString": [],
          "headersSize": 685,
          "postData": {
            "mimeType": "application/json;charset=utf-8",
            "params": [],
            "text": "{\"action\":\"start\",\"modules\":[\"adminui\"]}"
          }
        },
        "response": {
          "status": 201,
          "statusText": "",
          "httpVersion": "HTTP/1.1",
          "headers": [
            {
              "name": "Content-Type",
              "value": "application/json;charset=UTF-8"
            },
            {
              "name": "Content-Length",
              "value": "231"
            },
            {
              "name": "Date",
              "value": "Fri, 27 Nov 2020 05:12:54 GMT"
            },
            {
              "name": "Keep-Alive",
              "value": "timeout=20"
            },
            {
              "name": "Connection",
              "value": "keep-alive"
            }
          ],
          "cookies": [],
          "content": {
            "mimeType": "application/json; charset=UTF-8",
            "size": 231,
            "text": "{\"modules\":[{\"uuid\":\"adminui\",\"display\":\"Admin UI Module\",\"links\":[{\"rel\":\"self\",\"uri\":\"http://localhost:8080/openmrs_2.3.2http://localhost:8080/openmrs_2.3.2/ws/rest/v1/module/adminui\"}]}],\"action\":\"START\",\"resourceVersion\":\"1.8\"}"
          },
          "redirectURL": "",
          "headersSize": 169,
          "bodySize": 400
        },
        "cache": {},
        "timings": {
          "blocked": 0,
          "dns": 0,
          "connect": 0,
          "ssl": 0,
          "send": 0,
          "wait": 15854,
          "receive": 0
        },
        "time": 15854,
        "_securityState": "insecure",
        "serverIPAddress": "::1",
        "connection": "8080"
      }
    ]
  }
}